^C:\USERS\R_SHIMIZU\DOCUMENTS\PROJ\OPTICALFLOW\OPTICALFLOW_TIME\OPTICALFLOW_TIME\X64\DEBUG\CV_OPTFLOW.OBJ|C:\USERS\R_SHIMIZU\DOCUMENTS\PROJ\OPTICALFLOW\OPTICALFLOW_TIME\OPTICALFLOW_TIME\X64\DEBUG\HALCON_OPTFLOW.OBJ|C:\USERS\R_SHIMIZU\DOCUMENTS\PROJ\OPTICALFLOW\OPTICALFLOW_TIME\OPTICALFLOW_TIME\X64\DEBUG\OPTICALFLOW_TIME.OBJ
C:\USERS\R_SHIMIZU\DOCUMENTS\PROJ\OPTICALFLOW\OPTICALFLOW_TIME\OPTICALFLOW_TIME\X64\DEBUG\OPTICALFLOW_TIME.ILK
C:\USERS\R_SHIMIZU\DOCUMENTS\PROJ\OPTICALFLOW\OPTICALFLOW_TIME\X64\DEBUG\OPTICALFLOW_TIME.EXE
C:\USERS\R_SHIMIZU\DOCUMENTS\PROJ\OPTICALFLOW\OPTICALFLOW_TIME\X64\DEBUG\OPTICALFLOW_TIME.PDB
