^C:\USERS\R_SHIMIZU\DOCUMENTS\PROJ\OPTICALFLOW\OPTICALFLOW_TIME\OPTICALFLOW_TIME\OPTICALFLOW_TIME.CPP
C:\PROGRAM FILES (X86)\MICROSOFT VISUAL STUDIO\2019\PROFESSIONAL\VC\TOOLS\MSVC\14.29.30133\INCLUDE\IOSTREAM
C:\PROGRAM FILES (X86)\MICROSOFT VISUAL STUDIO\2019\PROFESSIONAL\VC\TOOLS\MSVC\14.29.30133\INCLUDE\YVALS_CORE.H
C:\PROGRAM FILES (X86)\MICROSOFT VISUAL STUDIO\2019\PROFESSIONAL\VC\TOOLS\MSVC\14.29.30133\INCLUDE\VCRUNTIME.H
C:\PROGRAM FILES (X86)\MICROSOFT VISUAL STUDIO\2019\PROFESSIONAL\VC\TOOLS\MSVC\14.29.30133\INCLUDE\SAL.H
C:\PROGRAM FILES (X86)\MICROSOFT VISUAL STUDIO\2019\PROFESSIONAL\VC\TOOLS\MSVC\14.29.30133\INCLUDE\CONCURRENCYSAL.H
C:\PROGRAM FILES (X86)\MICROSOFT VISUAL STUDIO\2019\PROFESSIONAL\VC\TOOLS\MSVC\14.29.30133\INCLUDE\VADEFS.H
C:\PROGRAM FILES (X86)\MICROSOFT VISUAL STUDIO\2019\PROFESSIONAL\VC\TOOLS\MSVC\14.29.30133\INCLUDE\XKEYCHECK.H
C:\PROGRAM FILES (X86)\MICROSOFT VISUAL STUDIO\2019\PROFESSIONAL\VC\TOOLS\MSVC\14.29.30133\INCLUDE\ISTREAM
C:\PROGRAM FILES (X86)\MICROSOFT VISUAL STUDIO\2019\PROFESSIONAL\VC\TOOLS\MSVC\14.29.30133\INCLUDE\OSTREAM
C:\PROGRAM FILES (X86)\MICROSOFT VISUAL STUDIO\2019\PROFESSIONAL\VC\TOOLS\MSVC\14.29.30133\INCLUDE\IOS
C:\PROGRAM FILES (X86)\MICROSOFT VISUAL STUDIO\2019\PROFESSIONAL\VC\TOOLS\MSVC\14.29.30133\INCLUDE\XLOCNUM
C:\PROGRAM FILES (X86)\MICROSOFT VISUAL STUDIO\2019\PROFESSIONAL\VC\TOOLS\MSVC\14.29.30133\INCLUDE\CLIMITS
C:\PROGRAM FILES (X86)\MICROSOFT VISUAL STUDIO\2019\PROFESSIONAL\VC\TOOLS\MSVC\14.29.30133\INCLUDE\LIMITS.H
C:\PROGRAM FILES (X86)\MICROSOFT VISUAL STUDIO\2019\PROFESSIONAL\VC\TOOLS\MSVC\14.29.30133\INCLUDE\CMATH
C:\PROGRAM FILES (X86)\MICROSOFT VISUAL STUDIO\2019\PROFESSIONAL\VC\TOOLS\MSVC\14.29.30133\INCLUDE\YVALS.H
C:\PROGRAM FILES (X86)\WINDOWS KITS\10\INCLUDE\10.0.19041.0\UCRT\CRTDBG.H
C:\PROGRAM FILES (X86)\WINDOWS KITS\10\INCLUDE\10.0.19041.0\UCRT\CORECRT.H
C:\PROGRAM FILES (X86)\MICROSOFT VISUAL STUDIO\2019\PROFESSIONAL\VC\TOOLS\MSVC\14.29.30133\INCLUDE\VCRUNTIME_NEW_DEBUG.H
C:\PROGRAM FILES (X86)\MICROSOFT VISUAL STUDIO\2019\PROFESSIONAL\VC\TOOLS\MSVC\14.29.30133\INCLUDE\VCRUNTIME_NEW.H
C:\PROGRAM FILES (X86)\MICROSOFT VISUAL STUDIO\2019\PROFESSIONAL\VC\TOOLS\MSVC\14.29.30133\INCLUDE\CRTDEFS.H
C:\PROGRAM FILES (X86)\MICROSOFT VISUAL STUDIO\2019\PROFESSIONAL\VC\TOOLS\MSVC\14.29.30133\INCLUDE\USE_ANSI.H
C:\PROGRAM FILES (X86)\MICROSOFT VISUAL STUDIO\2019\PROFESSIONAL\VC\TOOLS\MSVC\14.29.30133\INCLUDE\CSTDLIB
C:\PROGRAM FILES (X86)\WINDOWS KITS\10\INCLUDE\10.0.19041.0\UCRT\MATH.H
C:\PROGRAM FILES (X86)\WINDOWS KITS\10\INCLUDE\10.0.19041.0\UCRT\CORECRT_MATH.H
C:\PROGRAM FILES (X86)\WINDOWS KITS\10\INCLUDE\10.0.19041.0\UCRT\STDLIB.H
C:\PROGRAM FILES (X86)\WINDOWS KITS\10\INCLUDE\10.0.19041.0\UCRT\CORECRT_MALLOC.H
C:\PROGRAM FILES (X86)\WINDOWS KITS\10\INCLUDE\10.0.19041.0\UCRT\CORECRT_SEARCH.H
C:\PROGRAM FILES (X86)\WINDOWS KITS\10\INCLUDE\10.0.19041.0\UCRT\STDDEF.H
C:\PROGRAM FILES (X86)\WINDOWS KITS\10\INCLUDE\10.0.19041.0\UCRT\CORECRT_WSTDLIB.H
C:\PROGRAM FILES (X86)\MICROSOFT VISUAL STUDIO\2019\PROFESSIONAL\VC\TOOLS\MSVC\14.29.30133\INCLUDE\XTR1COMMON
C:\PROGRAM FILES (X86)\MICROSOFT VISUAL STUDIO\2019\PROFESSIONAL\VC\TOOLS\MSVC\14.29.30133\INCLUDE\INTRIN0.H
C:\PROGRAM FILES (X86)\MICROSOFT VISUAL STUDIO\2019\PROFESSIONAL\VC\TOOLS\MSVC\14.29.30133\INCLUDE\INTRIN0.INL.H
C:\PROGRAM FILES (X86)\MICROSOFT VISUAL STUDIO\2019\PROFESSIONAL\VC\TOOLS\MSVC\14.29.30133\INCLUDE\CSTDIO
C:\PROGRAM FILES (X86)\WINDOWS KITS\10\INCLUDE\10.0.19041.0\UCRT\STDIO.H
C:\PROGRAM FILES (X86)\WINDOWS KITS\10\INCLUDE\10.0.19041.0\UCRT\CORECRT_WSTDIO.H
C:\PROGRAM FILES (X86)\WINDOWS KITS\10\INCLUDE\10.0.19041.0\UCRT\CORECRT_STDIO_CONFIG.H
C:\PROGRAM FILES (X86)\MICROSOFT VISUAL STUDIO\2019\PROFESSIONAL\VC\TOOLS\MSVC\14.29.30133\INCLUDE\ITERATOR
C:\PROGRAM FILES (X86)\MICROSOFT VISUAL STUDIO\2019\PROFESSIONAL\VC\TOOLS\MSVC\14.29.30133\INCLUDE\IOSFWD
C:\PROGRAM FILES (X86)\MICROSOFT VISUAL STUDIO\2019\PROFESSIONAL\VC\TOOLS\MSVC\14.29.30133\INCLUDE\CSTRING
C:\PROGRAM FILES (X86)\WINDOWS KITS\10\INCLUDE\10.0.19041.0\UCRT\STRING.H
C:\PROGRAM FILES (X86)\WINDOWS KITS\10\INCLUDE\10.0.19041.0\UCRT\CORECRT_MEMORY.H
C:\PROGRAM FILES (X86)\WINDOWS KITS\10\INCLUDE\10.0.19041.0\UCRT\CORECRT_MEMCPY_S.H
C:\PROGRAM FILES (X86)\WINDOWS KITS\10\INCLUDE\10.0.19041.0\UCRT\ERRNO.H
C:\PROGRAM FILES (X86)\MICROSOFT VISUAL STUDIO\2019\PROFESSIONAL\VC\TOOLS\MSVC\14.29.30133\INCLUDE\VCRUNTIME_STRING.H
C:\PROGRAM FILES (X86)\WINDOWS KITS\10\INCLUDE\10.0.19041.0\UCRT\CORECRT_WSTRING.H
C:\PROGRAM FILES (X86)\MICROSOFT VISUAL STUDIO\2019\PROFESSIONAL\VC\TOOLS\MSVC\14.29.30133\INCLUDE\CWCHAR
C:\PROGRAM FILES (X86)\WINDOWS KITS\10\INCLUDE\10.0.19041.0\UCRT\WCHAR.H
C:\PROGRAM FILES (X86)\WINDOWS KITS\10\INCLUDE\10.0.19041.0\UCRT\CORECRT_WCONIO.H
C:\PROGRAM FILES (X86)\WINDOWS KITS\10\INCLUDE\10.0.19041.0\UCRT\CORECRT_WCTYPE.H
C:\PROGRAM FILES (X86)\WINDOWS KITS\10\INCLUDE\10.0.19041.0\UCRT\CORECRT_WDIRECT.H
C:\PROGRAM FILES (X86)\WINDOWS KITS\10\INCLUDE\10.0.19041.0\UCRT\CORECRT_WIO.H
C:\PROGRAM FILES (X86)\WINDOWS KITS\10\INCLUDE\10.0.19041.0\UCRT\CORECRT_SHARE.H
C:\PROGRAM FILES (X86)\WINDOWS KITS\10\INCLUDE\10.0.19041.0\UCRT\CORECRT_WPROCESS.H
C:\PROGRAM FILES (X86)\WINDOWS KITS\10\INCLUDE\10.0.19041.0\UCRT\CORECRT_WTIME.H
C:\PROGRAM FILES (X86)\WINDOWS KITS\10\INCLUDE\10.0.19041.0\UCRT\SYS\STAT.H
C:\PROGRAM FILES (X86)\WINDOWS KITS\10\INCLUDE\10.0.19041.0\UCRT\SYS\TYPES.H
C:\PROGRAM FILES (X86)\MICROSOFT VISUAL STUDIO\2019\PROFESSIONAL\VC\TOOLS\MSVC\14.29.30133\INCLUDE\XSTDDEF
C:\PROGRAM FILES (X86)\MICROSOFT VISUAL STUDIO\2019\PROFESSIONAL\VC\TOOLS\MSVC\14.29.30133\INCLUDE\CSTDDEF
C:\PROGRAM FILES (X86)\MICROSOFT VISUAL STUDIO\2019\PROFESSIONAL\VC\TOOLS\MSVC\14.29.30133\INCLUDE\INITIALIZER_LIST
C:\PROGRAM FILES (X86)\MICROSOFT VISUAL STUDIO\2019\PROFESSIONAL\VC\TOOLS\MSVC\14.29.30133\INCLUDE\XUTILITY
C:\PROGRAM FILES (X86)\MICROSOFT VISUAL STUDIO\2019\PROFESSIONAL\VC\TOOLS\MSVC\14.29.30133\INCLUDE\UTILITY
C:\PROGRAM FILES (X86)\MICROSOFT VISUAL STUDIO\2019\PROFESSIONAL\VC\TOOLS\MSVC\14.29.30133\INCLUDE\TYPE_TRAITS
C:\PROGRAM FILES (X86)\MICROSOFT VISUAL STUDIO\2019\PROFESSIONAL\VC\TOOLS\MSVC\14.29.30133\INCLUDE\CSTDINT
C:\PROGRAM FILES (X86)\MICROSOFT VISUAL STUDIO\2019\PROFESSIONAL\VC\TOOLS\MSVC\14.29.30133\INCLUDE\STDINT.H
C:\PROGRAM FILES (X86)\MICROSOFT VISUAL STUDIO\2019\PROFESSIONAL\VC\TOOLS\MSVC\14.29.30133\INCLUDE\STREAMBUF
C:\PROGRAM FILES (X86)\MICROSOFT VISUAL STUDIO\2019\PROFESSIONAL\VC\TOOLS\MSVC\14.29.30133\INCLUDE\XIOSBASE
C:\PROGRAM FILES (X86)\WINDOWS KITS\10\INCLUDE\10.0.19041.0\UCRT\SHARE.H
C:\PROGRAM FILES (X86)\MICROSOFT VISUAL STUDIO\2019\PROFESSIONAL\VC\TOOLS\MSVC\14.29.30133\INCLUDE\SYSTEM_ERROR
C:\PROGRAM FILES (X86)\MICROSOFT VISUAL STUDIO\2019\PROFESSIONAL\VC\TOOLS\MSVC\14.29.30133\INCLUDE\__MSVC_SYSTEM_ERROR_ABI.HPP
C:\PROGRAM FILES (X86)\MICROSOFT VISUAL STUDIO\2019\PROFESSIONAL\VC\TOOLS\MSVC\14.29.30133\INCLUDE\CERRNO
C:\PROGRAM FILES (X86)\MICROSOFT VISUAL STUDIO\2019\PROFESSIONAL\VC\TOOLS\MSVC\14.29.30133\INCLUDE\STDEXCEPT
C:\PROGRAM FILES (X86)\MICROSOFT VISUAL STUDIO\2019\PROFESSIONAL\VC\TOOLS\MSVC\14.29.30133\INCLUDE\EXCEPTION
C:\PROGRAM FILES (X86)\WINDOWS KITS\10\INCLUDE\10.0.19041.0\UCRT\MALLOC.H
C:\PROGRAM FILES (X86)\MICROSOFT VISUAL STUDIO\2019\PROFESSIONAL\VC\TOOLS\MSVC\14.29.30133\INCLUDE\VCRUNTIME_EXCEPTION.H
C:\PROGRAM FILES (X86)\MICROSOFT VISUAL STUDIO\2019\PROFESSIONAL\VC\TOOLS\MSVC\14.29.30133\INCLUDE\EH.H
C:\PROGRAM FILES (X86)\WINDOWS KITS\10\INCLUDE\10.0.19041.0\UCRT\CORECRT_TERMINATE.H
C:\PROGRAM FILES (X86)\MICROSOFT VISUAL STUDIO\2019\PROFESSIONAL\VC\TOOLS\MSVC\14.29.30133\INCLUDE\XSTRING
C:\PROGRAM FILES (X86)\MICROSOFT VISUAL STUDIO\2019\PROFESSIONAL\VC\TOOLS\MSVC\14.29.30133\INCLUDE\XMEMORY
C:\PROGRAM FILES (X86)\MICROSOFT VISUAL STUDIO\2019\PROFESSIONAL\VC\TOOLS\MSVC\14.29.30133\INCLUDE\LIMITS
C:\PROGRAM FILES (X86)\MICROSOFT VISUAL STUDIO\2019\PROFESSIONAL\VC\TOOLS\MSVC\14.29.30133\INCLUDE\CFLOAT
C:\PROGRAM FILES (X86)\WINDOWS KITS\10\INCLUDE\10.0.19041.0\UCRT\FLOAT.H
C:\PROGRAM FILES (X86)\MICROSOFT VISUAL STUDIO\2019\PROFESSIONAL\VC\TOOLS\MSVC\14.29.30133\INCLUDE\ISA_AVAILABILITY.H
C:\PROGRAM FILES (X86)\MICROSOFT VISUAL STUDIO\2019\PROFESSIONAL\VC\TOOLS\MSVC\14.29.30133\INCLUDE\NEW
C:\PROGRAM FILES (X86)\MICROSOFT VISUAL STUDIO\2019\PROFESSIONAL\VC\TOOLS\MSVC\14.29.30133\INCLUDE\XATOMIC.H
C:\PROGRAM FILES (X86)\MICROSOFT VISUAL STUDIO\2019\PROFESSIONAL\VC\TOOLS\MSVC\14.29.30133\INCLUDE\XCALL_ONCE.H
C:\PROGRAM FILES (X86)\MICROSOFT VISUAL STUDIO\2019\PROFESSIONAL\VC\TOOLS\MSVC\14.29.30133\INCLUDE\XERRC.H
C:\PROGRAM FILES (X86)\MICROSOFT VISUAL STUDIO\2019\PROFESSIONAL\VC\TOOLS\MSVC\14.29.30133\INCLUDE\ATOMIC
C:\PROGRAM FILES (X86)\MICROSOFT VISUAL STUDIO\2019\PROFESSIONAL\VC\TOOLS\MSVC\14.29.30133\INCLUDE\XTHREADS.H
C:\PROGRAM FILES (X86)\MICROSOFT VISUAL STUDIO\2019\PROFESSIONAL\VC\TOOLS\MSVC\14.29.30133\INCLUDE\XTIMEC.H
C:\PROGRAM FILES (X86)\MICROSOFT VISUAL STUDIO\2019\PROFESSIONAL\VC\TOOLS\MSVC\14.29.30133\INCLUDE\CTIME
C:\PROGRAM FILES (X86)\WINDOWS KITS\10\INCLUDE\10.0.19041.0\UCRT\TIME.H
C:\PROGRAM FILES (X86)\MICROSOFT VISUAL STUDIO\2019\PROFESSIONAL\VC\TOOLS\MSVC\14.29.30133\INCLUDE\XLOCALE
C:\PROGRAM FILES (X86)\MICROSOFT VISUAL STUDIO\2019\PROFESSIONAL\VC\TOOLS\MSVC\14.29.30133\INCLUDE\MEMORY
C:\PROGRAM FILES (X86)\MICROSOFT VISUAL STUDIO\2019\PROFESSIONAL\VC\TOOLS\MSVC\14.29.30133\INCLUDE\TYPEINFO
C:\PROGRAM FILES (X86)\MICROSOFT VISUAL STUDIO\2019\PROFESSIONAL\VC\TOOLS\MSVC\14.29.30133\INCLUDE\VCRUNTIME_TYPEINFO.H
C:\PROGRAM FILES (X86)\MICROSOFT VISUAL STUDIO\2019\PROFESSIONAL\VC\TOOLS\MSVC\14.29.30133\INCLUDE\XFACET
C:\PROGRAM FILES (X86)\MICROSOFT VISUAL STUDIO\2019\PROFESSIONAL\VC\TOOLS\MSVC\14.29.30133\INCLUDE\XLOCINFO
C:\PROGRAM FILES (X86)\MICROSOFT VISUAL STUDIO\2019\PROFESSIONAL\VC\TOOLS\MSVC\14.29.30133\INCLUDE\XLOCINFO.H
C:\PROGRAM FILES (X86)\MICROSOFT VISUAL STUDIO\2019\PROFESSIONAL\VC\TOOLS\MSVC\14.29.30133\INCLUDE\CCTYPE
C:\PROGRAM FILES (X86)\WINDOWS KITS\10\INCLUDE\10.0.19041.0\UCRT\CTYPE.H
C:\PROGRAM FILES (X86)\MICROSOFT VISUAL STUDIO\2019\PROFESSIONAL\VC\TOOLS\MSVC\14.29.30133\INCLUDE\CLOCALE
C:\PROGRAM FILES (X86)\WINDOWS KITS\10\INCLUDE\10.0.19041.0\UCRT\LOCALE.H
C:\USERS\R_SHIMIZU\DOCUMENTS\PROJ\OPTICALFLOW\OPTICALFLOW_TIME\OPTICALFLOW_TIME\CV_OPTFLOW.H
C:\PROGRAM FILES (X86)\MICROSOFT VISUAL STUDIO\2019\PROFESSIONAL\VC\TOOLS\MSVC\14.29.30133\INCLUDE\STRING
C:\USERS\R_SHIMIZU\DOCUMENTS\PROJ\OPTICALFLOW\OPTICALFLOW_TIME\OPTICALFLOW_TIME\HALCON_OPTFLOW.H
^C:\USERS\R_SHIMIZU\DOCUMENTS\PROJ\OPTICALFLOW\OPTICALFLOW_TIME\OPTICALFLOW_TIME\CV_OPTFLOW.CPP
C:\OPENCV-4.5.4\INSTALL\INCLUDE\OPENCV2\HIGHGUI.HPP
C:\OPENCV-4.5.4\INSTALL\INCLUDE\OPENCV2\CORE.HPP
C:\OPENCV-4.5.4\INSTALL\INCLUDE\OPENCV2\CORE\CVDEF.H
C:\OPENCV-4.5.4\INSTALL\INCLUDE\OPENCV2\CORE\VERSION.HPP
C:\PROGRAM FILES (X86)\MICROSOFT VISUAL STUDIO\2019\PROFESSIONAL\VC\TOOLS\MSVC\14.29.30133\INCLUDE\LIMITS
C:\PROGRAM FILES (X86)\MICROSOFT VISUAL STUDIO\2019\PROFESSIONAL\VC\TOOLS\MSVC\14.29.30133\INCLUDE\YVALS_CORE.H
C:\PROGRAM FILES (X86)\MICROSOFT VISUAL STUDIO\2019\PROFESSIONAL\VC\TOOLS\MSVC\14.29.30133\INCLUDE\VCRUNTIME.H
C:\PROGRAM FILES (X86)\MICROSOFT VISUAL STUDIO\2019\PROFESSIONAL\VC\TOOLS\MSVC\14.29.30133\INCLUDE\SAL.H
C:\PROGRAM FILES (X86)\MICROSOFT VISUAL STUDIO\2019\PROFESSIONAL\VC\TOOLS\MSVC\14.29.30133\INCLUDE\CONCURRENCYSAL.H
C:\PROGRAM FILES (X86)\MICROSOFT VISUAL STUDIO\2019\PROFESSIONAL\VC\TOOLS\MSVC\14.29.30133\INCLUDE\VADEFS.H
C:\PROGRAM FILES (X86)\MICROSOFT VISUAL STUDIO\2019\PROFESSIONAL\VC\TOOLS\MSVC\14.29.30133\INCLUDE\XKEYCHECK.H
C:\PROGRAM FILES (X86)\MICROSOFT VISUAL STUDIO\2019\PROFESSIONAL\VC\TOOLS\MSVC\14.29.30133\INCLUDE\CFLOAT
C:\PROGRAM FILES (X86)\WINDOWS KITS\10\INCLUDE\10.0.19041.0\UCRT\FLOAT.H
C:\PROGRAM FILES (X86)\WINDOWS KITS\10\INCLUDE\10.0.19041.0\UCRT\CORECRT.H
C:\PROGRAM FILES (X86)\MICROSOFT VISUAL STUDIO\2019\PROFESSIONAL\VC\TOOLS\MSVC\14.29.30133\INCLUDE\CLIMITS
C:\PROGRAM FILES (X86)\MICROSOFT VISUAL STUDIO\2019\PROFESSIONAL\VC\TOOLS\MSVC\14.29.30133\INCLUDE\LIMITS.H
C:\PROGRAM FILES (X86)\MICROSOFT VISUAL STUDIO\2019\PROFESSIONAL\VC\TOOLS\MSVC\14.29.30133\INCLUDE\CWCHAR
C:\PROGRAM FILES (X86)\MICROSOFT VISUAL STUDIO\2019\PROFESSIONAL\VC\TOOLS\MSVC\14.29.30133\INCLUDE\CSTDIO
C:\PROGRAM FILES (X86)\WINDOWS KITS\10\INCLUDE\10.0.19041.0\UCRT\STDIO.H
C:\PROGRAM FILES (X86)\WINDOWS KITS\10\INCLUDE\10.0.19041.0\UCRT\CORECRT_WSTDIO.H
C:\PROGRAM FILES (X86)\WINDOWS KITS\10\INCLUDE\10.0.19041.0\UCRT\CORECRT_STDIO_CONFIG.H
C:\PROGRAM FILES (X86)\WINDOWS KITS\10\INCLUDE\10.0.19041.0\UCRT\WCHAR.H
C:\PROGRAM FILES (X86)\WINDOWS KITS\10\INCLUDE\10.0.19041.0\UCRT\CORECRT_MEMCPY_S.H
C:\PROGRAM FILES (X86)\WINDOWS KITS\10\INCLUDE\10.0.19041.0\UCRT\ERRNO.H
C:\PROGRAM FILES (X86)\MICROSOFT VISUAL STUDIO\2019\PROFESSIONAL\VC\TOOLS\MSVC\14.29.30133\INCLUDE\VCRUNTIME_STRING.H
C:\PROGRAM FILES (X86)\WINDOWS KITS\10\INCLUDE\10.0.19041.0\UCRT\CORECRT_WCONIO.H
C:\PROGRAM FILES (X86)\WINDOWS KITS\10\INCLUDE\10.0.19041.0\UCRT\CORECRT_WCTYPE.H
C:\PROGRAM FILES (X86)\WINDOWS KITS\10\INCLUDE\10.0.19041.0\UCRT\CORECRT_WDIRECT.H
C:\PROGRAM FILES (X86)\WINDOWS KITS\10\INCLUDE\10.0.19041.0\UCRT\CORECRT_WIO.H
C:\PROGRAM FILES (X86)\WINDOWS KITS\10\INCLUDE\10.0.19041.0\UCRT\CORECRT_SHARE.H
C:\PROGRAM FILES (X86)\WINDOWS KITS\10\INCLUDE\10.0.19041.0\UCRT\CORECRT_WPROCESS.H
C:\PROGRAM FILES (X86)\WINDOWS KITS\10\INCLUDE\10.0.19041.0\UCRT\CORECRT_WSTDLIB.H
C:\PROGRAM FILES (X86)\WINDOWS KITS\10\INCLUDE\10.0.19041.0\UCRT\CORECRT_WSTRING.H
C:\PROGRAM FILES (X86)\WINDOWS KITS\10\INCLUDE\10.0.19041.0\UCRT\CORECRT_WTIME.H
C:\PROGRAM FILES (X86)\WINDOWS KITS\10\INCLUDE\10.0.19041.0\UCRT\SYS\STAT.H
C:\PROGRAM FILES (X86)\WINDOWS KITS\10\INCLUDE\10.0.19041.0\UCRT\SYS\TYPES.H
C:\PROGRAM FILES (X86)\MICROSOFT VISUAL STUDIO\2019\PROFESSIONAL\VC\TOOLS\MSVC\14.29.30133\INCLUDE\INTRIN0.H
C:\PROGRAM FILES (X86)\MICROSOFT VISUAL STUDIO\2019\PROFESSIONAL\VC\TOOLS\MSVC\14.29.30133\INCLUDE\INTRIN0.INL.H
C:\PROGRAM FILES (X86)\MICROSOFT VISUAL STUDIO\2019\PROFESSIONAL\VC\TOOLS\MSVC\14.29.30133\INCLUDE\ISA_AVAILABILITY.H
C:\PROGRAM FILES (X86)\MICROSOFT VISUAL STUDIO\2019\PROFESSIONAL\VC\TOOLS\MSVC\14.29.30133\INCLUDE\XSTDDEF
C:\PROGRAM FILES (X86)\MICROSOFT VISUAL STUDIO\2019\PROFESSIONAL\VC\TOOLS\MSVC\14.29.30133\INCLUDE\CSTDDEF
C:\PROGRAM FILES (X86)\WINDOWS KITS\10\INCLUDE\10.0.19041.0\UCRT\STDDEF.H
C:\PROGRAM FILES (X86)\MICROSOFT VISUAL STUDIO\2019\PROFESSIONAL\VC\TOOLS\MSVC\14.29.30133\INCLUDE\XTR1COMMON
C:\PROGRAM FILES (X86)\MICROSOFT VISUAL STUDIO\2019\PROFESSIONAL\VC\TOOLS\MSVC\14.29.30133\INCLUDE\CSTDLIB
C:\PROGRAM FILES (X86)\WINDOWS KITS\10\INCLUDE\10.0.19041.0\UCRT\MATH.H
C:\PROGRAM FILES (X86)\WINDOWS KITS\10\INCLUDE\10.0.19041.0\UCRT\CORECRT_MATH.H
C:\PROGRAM FILES (X86)\WINDOWS KITS\10\INCLUDE\10.0.19041.0\UCRT\STDLIB.H
C:\PROGRAM FILES (X86)\WINDOWS KITS\10\INCLUDE\10.0.19041.0\UCRT\CORECRT_MALLOC.H
C:\PROGRAM FILES (X86)\WINDOWS KITS\10\INCLUDE\10.0.19041.0\UCRT\CORECRT_SEARCH.H
C:\PROGRAM FILES (X86)\MICROSOFT VISUAL STUDIO\2019\PROFESSIONAL\VC\TOOLS\MSVC\14.29.30133\INCLUDE\INITIALIZER_LIST
C:\OPENCV-4.5.4\INSTALL\INCLUDE\OPENCV2\CORE\HAL\INTERFACE.H
C:\OPENCV-4.5.4\INSTALL\INCLUDE\OPENCV2\CORE\CV_CPU_DISPATCH.H
C:\PROGRAM FILES (X86)\MICROSOFT VISUAL STUDIO\2019\PROFESSIONAL\VC\TOOLS\MSVC\14.29.30133\INCLUDE\EMMINTRIN.H
C:\PROGRAM FILES (X86)\MICROSOFT VISUAL STUDIO\2019\PROFESSIONAL\VC\TOOLS\MSVC\14.29.30133\INCLUDE\XMMINTRIN.H
C:\PROGRAM FILES (X86)\MICROSOFT VISUAL STUDIO\2019\PROFESSIONAL\VC\TOOLS\MSVC\14.29.30133\INCLUDE\MMINTRIN.H
C:\PROGRAM FILES (X86)\WINDOWS KITS\10\INCLUDE\10.0.19041.0\UCRT\MALLOC.H
C:\PROGRAM FILES (X86)\MICROSOFT VISUAL STUDIO\2019\PROFESSIONAL\VC\TOOLS\MSVC\14.29.30133\INCLUDE\INTRIN.H
C:\PROGRAM FILES (X86)\MICROSOFT VISUAL STUDIO\2019\PROFESSIONAL\VC\TOOLS\MSVC\14.29.30133\INCLUDE\SETJMP.H
C:\PROGRAM FILES (X86)\MICROSOFT VISUAL STUDIO\2019\PROFESSIONAL\VC\TOOLS\MSVC\14.29.30133\INCLUDE\IMMINTRIN.H
C:\PROGRAM FILES (X86)\MICROSOFT VISUAL STUDIO\2019\PROFESSIONAL\VC\TOOLS\MSVC\14.29.30133\INCLUDE\WMMINTRIN.H
C:\PROGRAM FILES (X86)\MICROSOFT VISUAL STUDIO\2019\PROFESSIONAL\VC\TOOLS\MSVC\14.29.30133\INCLUDE\NMMINTRIN.H
C:\PROGRAM FILES (X86)\MICROSOFT VISUAL STUDIO\2019\PROFESSIONAL\VC\TOOLS\MSVC\14.29.30133\INCLUDE\SMMINTRIN.H
C:\PROGRAM FILES (X86)\MICROSOFT VISUAL STUDIO\2019\PROFESSIONAL\VC\TOOLS\MSVC\14.29.30133\INCLUDE\TMMINTRIN.H
C:\PROGRAM FILES (X86)\MICROSOFT VISUAL STUDIO\2019\PROFESSIONAL\VC\TOOLS\MSVC\14.29.30133\INCLUDE\PMMINTRIN.H
C:\PROGRAM FILES (X86)\MICROSOFT VISUAL STUDIO\2019\PROFESSIONAL\VC\TOOLS\MSVC\14.29.30133\INCLUDE\ZMMINTRIN.H
C:\PROGRAM FILES (X86)\MICROSOFT VISUAL STUDIO\2019\PROFESSIONAL\VC\TOOLS\MSVC\14.29.30133\INCLUDE\AMMINTRIN.H
C:\PROGRAM FILES (X86)\MICROSOFT VISUAL STUDIO\2019\PROFESSIONAL\VC\TOOLS\MSVC\14.29.30133\INCLUDE\ARRAY
C:\PROGRAM FILES (X86)\MICROSOFT VISUAL STUDIO\2019\PROFESSIONAL\VC\TOOLS\MSVC\14.29.30133\INCLUDE\XUTILITY
C:\PROGRAM FILES (X86)\MICROSOFT VISUAL STUDIO\2019\PROFESSIONAL\VC\TOOLS\MSVC\14.29.30133\INCLUDE\YVALS.H
C:\PROGRAM FILES (X86)\WINDOWS KITS\10\INCLUDE\10.0.19041.0\UCRT\CRTDBG.H
C:\PROGRAM FILES (X86)\MICROSOFT VISUAL STUDIO\2019\PROFESSIONAL\VC\TOOLS\MSVC\14.29.30133\INCLUDE\VCRUNTIME_NEW_DEBUG.H
C:\PROGRAM FILES (X86)\MICROSOFT VISUAL STUDIO\2019\PROFESSIONAL\VC\TOOLS\MSVC\14.29.30133\INCLUDE\VCRUNTIME_NEW.H
C:\PROGRAM FILES (X86)\MICROSOFT VISUAL STUDIO\2019\PROFESSIONAL\VC\TOOLS\MSVC\14.29.30133\INCLUDE\CRTDEFS.H
C:\PROGRAM FILES (X86)\MICROSOFT VISUAL STUDIO\2019\PROFESSIONAL\VC\TOOLS\MSVC\14.29.30133\INCLUDE\USE_ANSI.H
C:\PROGRAM FILES (X86)\MICROSOFT VISUAL STUDIO\2019\PROFESSIONAL\VC\TOOLS\MSVC\14.29.30133\INCLUDE\CSTRING
C:\PROGRAM FILES (X86)\WINDOWS KITS\10\INCLUDE\10.0.19041.0\UCRT\STRING.H
C:\PROGRAM FILES (X86)\WINDOWS KITS\10\INCLUDE\10.0.19041.0\UCRT\CORECRT_MEMORY.H
C:\PROGRAM FILES (X86)\MICROSOFT VISUAL STUDIO\2019\PROFESSIONAL\VC\TOOLS\MSVC\14.29.30133\INCLUDE\UTILITY
C:\PROGRAM FILES (X86)\MICROSOFT VISUAL STUDIO\2019\PROFESSIONAL\VC\TOOLS\MSVC\14.29.30133\INCLUDE\TYPE_TRAITS
C:\PROGRAM FILES (X86)\MICROSOFT VISUAL STUDIO\2019\PROFESSIONAL\VC\TOOLS\MSVC\14.29.30133\INCLUDE\CSTDINT
C:\PROGRAM FILES (X86)\MICROSOFT VISUAL STUDIO\2019\PROFESSIONAL\VC\TOOLS\MSVC\14.29.30133\INCLUDE\STDINT.H
C:\OPENCV-4.5.4\INSTALL\INCLUDE\OPENCV2\CORE\BASE.HPP
C:\OPENCV-4.5.4\INSTALL\INCLUDE\OPENCV2\OPENCV_MODULES.HPP
C:\PROGRAM FILES (X86)\MICROSOFT VISUAL STUDIO\2019\PROFESSIONAL\VC\TOOLS\MSVC\14.29.30133\INCLUDE\ALGORITHM
C:\PROGRAM FILES (X86)\MICROSOFT VISUAL STUDIO\2019\PROFESSIONAL\VC\TOOLS\MSVC\14.29.30133\INCLUDE\XMEMORY
C:\PROGRAM FILES (X86)\MICROSOFT VISUAL STUDIO\2019\PROFESSIONAL\VC\TOOLS\MSVC\14.29.30133\INCLUDE\NEW
C:\PROGRAM FILES (X86)\MICROSOFT VISUAL STUDIO\2019\PROFESSIONAL\VC\TOOLS\MSVC\14.29.30133\INCLUDE\EXCEPTION
C:\PROGRAM FILES (X86)\MICROSOFT VISUAL STUDIO\2019\PROFESSIONAL\VC\TOOLS\MSVC\14.29.30133\INCLUDE\VCRUNTIME_EXCEPTION.H
C:\PROGRAM FILES (X86)\MICROSOFT VISUAL STUDIO\2019\PROFESSIONAL\VC\TOOLS\MSVC\14.29.30133\INCLUDE\EH.H
C:\PROGRAM FILES (X86)\WINDOWS KITS\10\INCLUDE\10.0.19041.0\UCRT\CORECRT_TERMINATE.H
C:\PROGRAM FILES (X86)\MICROSOFT VISUAL STUDIO\2019\PROFESSIONAL\VC\TOOLS\MSVC\14.29.30133\INCLUDE\XATOMIC.H
C:\OPENCV-4.5.4\INSTALL\INCLUDE\OPENCV2\CORE\CVSTD.HPP
C:\PROGRAM FILES (X86)\MICROSOFT VISUAL STUDIO\2019\PROFESSIONAL\VC\TOOLS\MSVC\14.29.30133\INCLUDE\CCTYPE
C:\PROGRAM FILES (X86)\WINDOWS KITS\10\INCLUDE\10.0.19041.0\UCRT\CTYPE.H
C:\PROGRAM FILES (X86)\MICROSOFT VISUAL STUDIO\2019\PROFESSIONAL\VC\TOOLS\MSVC\14.29.30133\INCLUDE\STRING
C:\PROGRAM FILES (X86)\MICROSOFT VISUAL STUDIO\2019\PROFESSIONAL\VC\TOOLS\MSVC\14.29.30133\INCLUDE\XSTRING
C:\PROGRAM FILES (X86)\MICROSOFT VISUAL STUDIO\2019\PROFESSIONAL\VC\TOOLS\MSVC\14.29.30133\INCLUDE\IOSFWD
C:\PROGRAM FILES (X86)\MICROSOFT VISUAL STUDIO\2019\PROFESSIONAL\VC\TOOLS\MSVC\14.29.30133\INCLUDE\CMATH
C:\OPENCV-4.5.4\INSTALL\INCLUDE\OPENCV2\CORE\CVSTD_WRAPPER.HPP
C:\PROGRAM FILES (X86)\MICROSOFT VISUAL STUDIO\2019\PROFESSIONAL\VC\TOOLS\MSVC\14.29.30133\INCLUDE\MEMORY
C:\PROGRAM FILES (X86)\MICROSOFT VISUAL STUDIO\2019\PROFESSIONAL\VC\TOOLS\MSVC\14.29.30133\INCLUDE\TYPEINFO
C:\PROGRAM FILES (X86)\MICROSOFT VISUAL STUDIO\2019\PROFESSIONAL\VC\TOOLS\MSVC\14.29.30133\INCLUDE\VCRUNTIME_TYPEINFO.H
C:\OPENCV-4.5.4\INSTALL\INCLUDE\OPENCV2\CORE\NEON_UTILS.HPP
C:\OPENCV-4.5.4\INSTALL\INCLUDE\OPENCV2\CORE\VSX_UTILS.HPP
C:\PROGRAM FILES (X86)\WINDOWS KITS\10\INCLUDE\10.0.19041.0\UCRT\ASSERT.H
C:\OPENCV-4.5.4\INSTALL\INCLUDE\OPENCV2\CORE\CHECK.HPP
C:\OPENCV-4.5.4\INSTALL\INCLUDE\OPENCV2\CORE\TRAITS.HPP
C:\OPENCV-4.5.4\INSTALL\INCLUDE\OPENCV2\CORE\MATX.HPP
C:\OPENCV-4.5.4\INSTALL\INCLUDE\OPENCV2\CORE\SATURATE.HPP
C:\OPENCV-4.5.4\INSTALL\INCLUDE\OPENCV2\CORE\FAST_MATH.HPP
C:\OPENCV-4.5.4\INSTALL\INCLUDE\OPENCV2\CORE\TYPES.HPP
C:\PROGRAM FILES (X86)\MICROSOFT VISUAL STUDIO\2019\PROFESSIONAL\VC\TOOLS\MSVC\14.29.30133\INCLUDE\VECTOR
C:\OPENCV-4.5.4\INSTALL\INCLUDE\OPENCV2\CORE\MAT.HPP
C:\OPENCV-4.5.4\INSTALL\INCLUDE\OPENCV2\CORE\BUFFERPOOL.HPP
C:\OPENCV-4.5.4\INSTALL\INCLUDE\OPENCV2\CORE\MAT.INL.HPP
C:\OPENCV-4.5.4\INSTALL\INCLUDE\OPENCV2\CORE\PERSISTENCE.HPP
C:\OPENCV-4.5.4\INSTALL\INCLUDE\OPENCV2\CORE\OPERATIONS.HPP
C:\OPENCV-4.5.4\INSTALL\INCLUDE\OPENCV2\CORE\CVSTD.INL.HPP
C:\PROGRAM FILES (X86)\MICROSOFT VISUAL STUDIO\2019\PROFESSIONAL\VC\TOOLS\MSVC\14.29.30133\INCLUDE\COMPLEX
C:\PROGRAM FILES (X86)\MICROSOFT VISUAL STUDIO\2019\PROFESSIONAL\VC\TOOLS\MSVC\14.29.30133\INCLUDE\SSTREAM
C:\PROGRAM FILES (X86)\MICROSOFT VISUAL STUDIO\2019\PROFESSIONAL\VC\TOOLS\MSVC\14.29.30133\INCLUDE\ISTREAM
C:\PROGRAM FILES (X86)\MICROSOFT VISUAL STUDIO\2019\PROFESSIONAL\VC\TOOLS\MSVC\14.29.30133\INCLUDE\OSTREAM
C:\PROGRAM FILES (X86)\MICROSOFT VISUAL STUDIO\2019\PROFESSIONAL\VC\TOOLS\MSVC\14.29.30133\INCLUDE\IOS
C:\PROGRAM FILES (X86)\MICROSOFT VISUAL STUDIO\2019\PROFESSIONAL\VC\TOOLS\MSVC\14.29.30133\INCLUDE\XLOCNUM
C:\PROGRAM FILES (X86)\MICROSOFT VISUAL STUDIO\2019\PROFESSIONAL\VC\TOOLS\MSVC\14.29.30133\INCLUDE\ITERATOR
C:\PROGRAM FILES (X86)\MICROSOFT VISUAL STUDIO\2019\PROFESSIONAL\VC\TOOLS\MSVC\14.29.30133\INCLUDE\STREAMBUF
C:\PROGRAM FILES (X86)\MICROSOFT VISUAL STUDIO\2019\PROFESSIONAL\VC\TOOLS\MSVC\14.29.30133\INCLUDE\XIOSBASE
C:\PROGRAM FILES (X86)\WINDOWS KITS\10\INCLUDE\10.0.19041.0\UCRT\SHARE.H
C:\PROGRAM FILES (X86)\MICROSOFT VISUAL STUDIO\2019\PROFESSIONAL\VC\TOOLS\MSVC\14.29.30133\INCLUDE\SYSTEM_ERROR
C:\PROGRAM FILES (X86)\MICROSOFT VISUAL STUDIO\2019\PROFESSIONAL\VC\TOOLS\MSVC\14.29.30133\INCLUDE\__MSVC_SYSTEM_ERROR_ABI.HPP
C:\PROGRAM FILES (X86)\MICROSOFT VISUAL STUDIO\2019\PROFESSIONAL\VC\TOOLS\MSVC\14.29.30133\INCLUDE\CERRNO
C:\PROGRAM FILES (X86)\MICROSOFT VISUAL STUDIO\2019\PROFESSIONAL\VC\TOOLS\MSVC\14.29.30133\INCLUDE\STDEXCEPT
C:\PROGRAM FILES (X86)\MICROSOFT VISUAL STUDIO\2019\PROFESSIONAL\VC\TOOLS\MSVC\14.29.30133\INCLUDE\XCALL_ONCE.H
C:\PROGRAM FILES (X86)\MICROSOFT VISUAL STUDIO\2019\PROFESSIONAL\VC\TOOLS\MSVC\14.29.30133\INCLUDE\XERRC.H
C:\PROGRAM FILES (X86)\MICROSOFT VISUAL STUDIO\2019\PROFESSIONAL\VC\TOOLS\MSVC\14.29.30133\INCLUDE\ATOMIC
C:\PROGRAM FILES (X86)\MICROSOFT VISUAL STUDIO\2019\PROFESSIONAL\VC\TOOLS\MSVC\14.29.30133\INCLUDE\XTHREADS.H
C:\PROGRAM FILES (X86)\MICROSOFT VISUAL STUDIO\2019\PROFESSIONAL\VC\TOOLS\MSVC\14.29.30133\INCLUDE\XTIMEC.H
C:\PROGRAM FILES (X86)\MICROSOFT VISUAL STUDIO\2019\PROFESSIONAL\VC\TOOLS\MSVC\14.29.30133\INCLUDE\CTIME
C:\PROGRAM FILES (X86)\WINDOWS KITS\10\INCLUDE\10.0.19041.0\UCRT\TIME.H
C:\PROGRAM FILES (X86)\MICROSOFT VISUAL STUDIO\2019\PROFESSIONAL\VC\TOOLS\MSVC\14.29.30133\INCLUDE\XLOCALE
C:\PROGRAM FILES (X86)\MICROSOFT VISUAL STUDIO\2019\PROFESSIONAL\VC\TOOLS\MSVC\14.29.30133\INCLUDE\XFACET
C:\PROGRAM FILES (X86)\MICROSOFT VISUAL STUDIO\2019\PROFESSIONAL\VC\TOOLS\MSVC\14.29.30133\INCLUDE\XLOCINFO
C:\PROGRAM FILES (X86)\MICROSOFT VISUAL STUDIO\2019\PROFESSIONAL\VC\TOOLS\MSVC\14.29.30133\INCLUDE\XLOCINFO.H
C:\PROGRAM FILES (X86)\MICROSOFT VISUAL STUDIO\2019\PROFESSIONAL\VC\TOOLS\MSVC\14.29.30133\INCLUDE\CLOCALE
C:\PROGRAM FILES (X86)\WINDOWS KITS\10\INCLUDE\10.0.19041.0\UCRT\LOCALE.H
C:\PROGRAM FILES (X86)\MICROSOFT VISUAL STUDIO\2019\PROFESSIONAL\VC\TOOLS\MSVC\14.29.30133\INCLUDE\YMATH.H
C:\OPENCV-4.5.4\INSTALL\INCLUDE\OPENCV2\CORE\UTILITY.HPP
C:\PROGRAM FILES (X86)\MICROSOFT VISUAL STUDIO\2019\PROFESSIONAL\VC\TOOLS\MSVC\14.29.30133\INCLUDE\FUNCTIONAL
C:\PROGRAM FILES (X86)\MICROSOFT VISUAL STUDIO\2019\PROFESSIONAL\VC\TOOLS\MSVC\14.29.30133\INCLUDE\TUPLE
C:\PROGRAM FILES (X86)\MICROSOFT VISUAL STUDIO\2019\PROFESSIONAL\VC\TOOLS\MSVC\14.29.30133\INCLUDE\MUTEX
C:\PROGRAM FILES (X86)\MICROSOFT VISUAL STUDIO\2019\PROFESSIONAL\VC\TOOLS\MSVC\14.29.30133\INCLUDE\CHRONO
C:\PROGRAM FILES (X86)\MICROSOFT VISUAL STUDIO\2019\PROFESSIONAL\VC\TOOLS\MSVC\14.29.30133\INCLUDE\RATIO
C:\PROGRAM FILES (X86)\MICROSOFT VISUAL STUDIO\2019\PROFESSIONAL\VC\TOOLS\MSVC\14.29.30133\INCLUDE\THREAD
C:\PROGRAM FILES (X86)\WINDOWS KITS\10\INCLUDE\10.0.19041.0\UCRT\PROCESS.H
C:\PROGRAM FILES (X86)\WINDOWS KITS\10\INCLUDE\10.0.19041.0\UCRT\CORECRT_STARTUP.H
C:\PROGRAM FILES (X86)\MICROSOFT VISUAL STUDIO\2019\PROFESSIONAL\VC\TOOLS\MSVC\14.29.30133\INCLUDE\VCRUNTIME_STARTUP.H
C:\OPENCV-4.5.4\INSTALL\INCLUDE\OPENCV2\CORE\OPTIM.HPP
C:\OPENCV-4.5.4\INSTALL\INCLUDE\OPENCV2\CORE\OVX.HPP
C:\OPENCV-4.5.4\INSTALL\INCLUDE\OPENCV2\IMGCODECS.HPP
C:\OPENCV-4.5.4\INSTALL\INCLUDE\OPENCV2\VIDEOIO.HPP
C:\OPENCV-4.5.4\INSTALL\INCLUDE\OPENCV2\IMGPROC.HPP
C:\OPENCV-4.5.4\INSTALL\INCLUDE\OPENCV2\IMGPROC\SEGMENTATION.HPP
C:\OPENCV-4.5.4\INSTALL\INCLUDE\OPENCV2\OPENCV.HPP
C:\OPENCV-4.5.4\INSTALL\INCLUDE\OPENCV2\CALIB3D.HPP
C:\OPENCV-4.5.4\INSTALL\INCLUDE\OPENCV2\FEATURES2D.HPP
C:\OPENCV-4.5.4\INSTALL\INCLUDE\OPENCV2\FLANN\MINIFLANN.HPP
C:\OPENCV-4.5.4\INSTALL\INCLUDE\OPENCV2\FLANN\DEFINES.H
C:\OPENCV-4.5.4\INSTALL\INCLUDE\OPENCV2\FLANN\CONFIG.H
C:\OPENCV-4.5.4\INSTALL\INCLUDE\OPENCV2\CORE\AFFINE.HPP
C:\OPENCV-4.5.4\INSTALL\INCLUDE\OPENCV2\DNN.HPP
C:\OPENCV-4.5.4\INSTALL\INCLUDE\OPENCV2\DNN\DNN.HPP
C:\OPENCV-4.5.4\INSTALL\INCLUDE\OPENCV2\CORE\ASYNC.HPP
C:\OPENCV-4.5.4\INSTALL\INCLUDE\OPENCV2\DNN\VERSION.HPP
C:\OPENCV-4.5.4\INSTALL\INCLUDE\OPENCV2\DNN\DICT.HPP
C:\PROGRAM FILES (X86)\MICROSOFT VISUAL STUDIO\2019\PROFESSIONAL\VC\TOOLS\MSVC\14.29.30133\INCLUDE\MAP
C:\PROGRAM FILES (X86)\MICROSOFT VISUAL STUDIO\2019\PROFESSIONAL\VC\TOOLS\MSVC\14.29.30133\INCLUDE\XTREE
C:\OPENCV-4.5.4\INSTALL\INCLUDE\OPENCV2\DNN\LAYER.HPP
C:\OPENCV-4.5.4\INSTALL\INCLUDE\OPENCV2\DNN\DNN.INL.HPP
C:\OPENCV-4.5.4\INSTALL\INCLUDE\OPENCV2\DNN\UTILS\INFERENCE_ENGINE.HPP
C:\OPENCV-4.5.4\INSTALL\INCLUDE\OPENCV2\FLANN.HPP
C:\OPENCV-4.5.4\INSTALL\INCLUDE\OPENCV2\FLANN\FLANN_BASE.HPP
C:\OPENCV-4.5.4\INSTALL\INCLUDE\OPENCV2\FLANN\GENERAL.H
C:\OPENCV-4.5.4\INSTALL\INCLUDE\OPENCV2\FLANN\MATRIX.H
C:\OPENCV-4.5.4\INSTALL\INCLUDE\OPENCV2\FLANN\PARAMS.H
C:\OPENCV-4.5.4\INSTALL\INCLUDE\OPENCV2\FLANN\ANY.H
C:\PROGRAM FILES (X86)\MICROSOFT VISUAL STUDIO\2019\PROFESSIONAL\VC\TOOLS\MSVC\14.29.30133\INCLUDE\IOSTREAM
C:\OPENCV-4.5.4\INSTALL\INCLUDE\OPENCV2\FLANN\SAVING.H
C:\OPENCV-4.5.4\INSTALL\INCLUDE\OPENCV2\FLANN\NN_INDEX.H
C:\OPENCV-4.5.4\INSTALL\INCLUDE\OPENCV2\FLANN\RESULT_SET.H
C:\PROGRAM FILES (X86)\MICROSOFT VISUAL STUDIO\2019\PROFESSIONAL\VC\TOOLS\MSVC\14.29.30133\INCLUDE\SET
C:\OPENCV-4.5.4\INSTALL\INCLUDE\OPENCV2\FLANN\ALL_INDICES.H
C:\OPENCV-4.5.4\INSTALL\INCLUDE\OPENCV2\FLANN\KDTREE_INDEX.H
C:\OPENCV-4.5.4\INSTALL\INCLUDE\OPENCV2\FLANN\DYNAMIC_BITSET.H
C:\OPENCV-4.5.4\INSTALL\INCLUDE\OPENCV2\FLANN\DIST.H
C:\OPENCV-4.5.4\INSTALL\INCLUDE\OPENCV2\FLANN\HEAP.H
C:\PROGRAM FILES (X86)\MICROSOFT VISUAL STUDIO\2019\PROFESSIONAL\VC\TOOLS\MSVC\14.29.30133\INCLUDE\UNORDERED_MAP
C:\PROGRAM FILES (X86)\MICROSOFT VISUAL STUDIO\2019\PROFESSIONAL\VC\TOOLS\MSVC\14.29.30133\INCLUDE\XHASH
C:\PROGRAM FILES (X86)\MICROSOFT VISUAL STUDIO\2019\PROFESSIONAL\VC\TOOLS\MSVC\14.29.30133\INCLUDE\LIST
C:\PROGRAM FILES (X86)\MICROSOFT VISUAL STUDIO\2019\PROFESSIONAL\VC\TOOLS\MSVC\14.29.30133\INCLUDE\XBIT_OPS.H
C:\OPENCV-4.5.4\INSTALL\INCLUDE\OPENCV2\FLANN\ALLOCATOR.H
C:\OPENCV-4.5.4\INSTALL\INCLUDE\OPENCV2\FLANN\RANDOM.H
C:\OPENCV-4.5.4\INSTALL\INCLUDE\OPENCV2\FLANN\KDTREE_SINGLE_INDEX.H
C:\OPENCV-4.5.4\INSTALL\INCLUDE\OPENCV2\FLANN\KMEANS_INDEX.H
C:\OPENCV-4.5.4\INSTALL\INCLUDE\OPENCV2\FLANN\LOGGER.H
C:\PROGRAM FILES (X86)\MICROSOFT VISUAL STUDIO\2019\PROFESSIONAL\VC\TOOLS\MSVC\14.29.30133\INCLUDE\STDARG.H
C:\OPENCV-4.5.4\INSTALL\INCLUDE\OPENCV2\FLANN\COMPOSITE_INDEX.H
C:\OPENCV-4.5.4\INSTALL\INCLUDE\OPENCV2\FLANN\LINEAR_INDEX.H
C:\OPENCV-4.5.4\INSTALL\INCLUDE\OPENCV2\FLANN\HIERARCHICAL_CLUSTERING_INDEX.H
C:\OPENCV-4.5.4\INSTALL\INCLUDE\OPENCV2\FLANN\LSH_INDEX.H
C:\OPENCV-4.5.4\INSTALL\INCLUDE\OPENCV2\FLANN\LSH_TABLE.H
C:\PROGRAM FILES (X86)\MICROSOFT VISUAL STUDIO\2019\PROFESSIONAL\VC\TOOLS\MSVC\14.29.30133\INCLUDE\IOMANIP
C:\PROGRAM FILES (X86)\MICROSOFT VISUAL STUDIO\2019\PROFESSIONAL\VC\TOOLS\MSVC\14.29.30133\INCLUDE\XLOCMON
C:\PROGRAM FILES (X86)\MICROSOFT VISUAL STUDIO\2019\PROFESSIONAL\VC\TOOLS\MSVC\14.29.30133\INCLUDE\XLOCTIME
C:\OPENCV-4.5.4\INSTALL\INCLUDE\OPENCV2\FLANN\AUTOTUNED_INDEX.H
C:\OPENCV-4.5.4\INSTALL\INCLUDE\OPENCV2\FLANN\GROUND_TRUTH.H
C:\OPENCV-4.5.4\INSTALL\INCLUDE\OPENCV2\FLANN\INDEX_TESTING.H
C:\OPENCV-4.5.4\INSTALL\INCLUDE\OPENCV2\FLANN\TIMER.H
C:\OPENCV-4.5.4\INSTALL\INCLUDE\OPENCV2\FLANN\SAMPLING.H
C:\OPENCV-4.5.4\INSTALL\INCLUDE\OPENCV2\ML.HPP
C:\OPENCV-4.5.4\INSTALL\INCLUDE\OPENCV2\ML\ML.INL.HPP
C:\OPENCV-4.5.4\INSTALL\INCLUDE\OPENCV2\OBJDETECT.HPP
C:\OPENCV-4.5.4\INSTALL\INCLUDE\OPENCV2\OBJDETECT\DETECTION_BASED_TRACKER.HPP
C:\OPENCV-4.5.4\INSTALL\INCLUDE\OPENCV2\OBJDETECT\FACE.HPP
C:\OPENCV-4.5.4\INSTALL\INCLUDE\OPENCV2\PHOTO.HPP
C:\OPENCV-4.5.4\INSTALL\INCLUDE\OPENCV2\STITCHING.HPP
C:\OPENCV-4.5.4\INSTALL\INCLUDE\OPENCV2\STITCHING\WARPERS.HPP
C:\OPENCV-4.5.4\INSTALL\INCLUDE\OPENCV2\STITCHING\DETAIL\WARPERS.HPP
C:\OPENCV-4.5.4\INSTALL\INCLUDE\OPENCV2\CORE\CUDA.HPP
C:\OPENCV-4.5.4\INSTALL\INCLUDE\OPENCV2\CORE\CUDA_TYPES.HPP
C:\OPENCV-4.5.4\INSTALL\INCLUDE\OPENCV2\CORE\CUDA.INL.HPP
C:\OPENCV-4.5.4\INSTALL\INCLUDE\OPENCV2\STITCHING\DETAIL\WARPERS_INL.HPP
C:\OPENCV-4.5.4\INSTALL\INCLUDE\OPENCV2\STITCHING\DETAIL\MATCHERS.HPP
C:\OPENCV-4.5.4\INSTALL\INCLUDE\OPENCV2\STITCHING\DETAIL\MOTION_ESTIMATORS.HPP
C:\OPENCV-4.5.4\INSTALL\INCLUDE\OPENCV2\STITCHING\DETAIL\UTIL.HPP
C:\OPENCV-4.5.4\INSTALL\INCLUDE\OPENCV2\STITCHING\DETAIL\UTIL_INL.HPP
C:\PROGRAM FILES (X86)\MICROSOFT VISUAL STUDIO\2019\PROFESSIONAL\VC\TOOLS\MSVC\14.29.30133\INCLUDE\QUEUE
C:\PROGRAM FILES (X86)\MICROSOFT VISUAL STUDIO\2019\PROFESSIONAL\VC\TOOLS\MSVC\14.29.30133\INCLUDE\DEQUE
C:\OPENCV-4.5.4\INSTALL\INCLUDE\OPENCV2\STITCHING\DETAIL\CAMERA.HPP
C:\OPENCV-4.5.4\INSTALL\INCLUDE\OPENCV2\STITCHING\DETAIL\EXPOSURE_COMPENSATE.HPP
C:\OPENCV-4.5.4\INSTALL\INCLUDE\OPENCV2\STITCHING\DETAIL\SEAM_FINDERS.HPP
C:\OPENCV-4.5.4\INSTALL\INCLUDE\OPENCV2\STITCHING\DETAIL\BLENDERS.HPP
C:\OPENCV-4.5.4\INSTALL\INCLUDE\OPENCV2\VIDEO.HPP
C:\OPENCV-4.5.4\INSTALL\INCLUDE\OPENCV2\VIDEO\TRACKING.HPP
C:\OPENCV-4.5.4\INSTALL\INCLUDE\OPENCV2\VIDEO\BACKGROUND_SEGM.HPP
C:\OPENCV-4.5.4\INSTALL\INCLUDE\OPENCV2\SUPERRES\OPTICAL_FLOW.HPP
C:\PROGRAM FILES\MVTEC\HALCON-20.11-STEADY\INCLUDE\HALCONCPP\HALCONCPP.H
C:\PROGRAM FILES\MVTEC\HALCON-20.11-STEADY\INCLUDE\HALCON.H
C:\PROGRAM FILES\MVTEC\HALCON-20.11-STEADY\INCLUDE\HVERSNUM.H
C:\PROGRAM FILES\MVTEC\HALCON-20.11-STEADY\INCLUDE\HINTDEF.H
C:\PROGRAM FILES\MVTEC\HALCON-20.11-STEADY\INCLUDE\HCLIB\HCLIB_TYPES.H
C:\PROGRAM FILES (X86)\MICROSOFT VISUAL STUDIO\2019\PROFESSIONAL\VC\TOOLS\MSVC\14.29.30133\INCLUDE\STDBOOL.H
C:\PROGRAM FILES\MVTEC\HALCON-20.11-STEADY\INCLUDE\HDECLSPEC.H
C:\PROGRAM FILES\MVTEC\HALCON-20.11-STEADY\INCLUDE\HERRORDEF.H
C:\PROGRAM FILES\MVTEC\HALCON-20.11-STEADY\INCLUDE\HCONST.H
C:\PROGRAM FILES\MVTEC\HALCON-20.11-STEADY\INCLUDE\HBASE.H
C:\PROGRAM FILES\MVTEC\HALCON-20.11-STEADY\INCLUDE\IPTYPE.H
C:\PROGRAM FILES\MVTEC\HALCON-20.11-STEADY\INCLUDE\HPARALLEL.H
C:\PROGRAM FILES\MVTEC\HALCON-20.11-STEADY\INCLUDE\HLIB\HALLOC.H
C:\PROGRAM FILES\MVTEC\HALCON-20.11-STEADY\INCLUDE\HMACRO.H
C:\PROGRAM FILES\MVTEC\HALCON-20.11-STEADY\INCLUDE\HEXTERN.H
C:\PROGRAM FILES\MVTEC\HALCON-20.11-STEADY\INCLUDE\HLIB\HBASEGP.H
C:\PROGRAM FILES\MVTEC\HALCON-20.11-STEADY\INCLUDE\HLIB\IOSPY.H
C:\PROGRAM FILES\MVTEC\HALCON-20.11-STEADY\INCLUDE\HLIB\HINSTANCE.H
C:\PROGRAM FILES\MVTEC\HALCON-20.11-STEADY\INCLUDE\HLIB\HINSTANCEDEFINES.H
C:\PROGRAM FILES\MVTEC\HALCON-20.11-STEADY\INCLUDE\HLIB\DBNEW.H
C:\PROGRAM FILES\MVTEC\HALCON-20.11-STEADY\INCLUDE\HLIB\CORE1.H
C:\PROGRAM FILES\MVTEC\HALCON-20.11-STEADY\INCLUDE\HLIB\HXLD.H
C:\PROGRAM FILES\MVTEC\HALCON-20.11-STEADY\INCLUDE\HLIB\HERROR.H
C:\PROGRAM FILES (X86)\WINDOWS KITS\10\INCLUDE\10.0.19041.0\UM\WINDOWS.H
C:\PROGRAM FILES (X86)\WINDOWS KITS\10\INCLUDE\10.0.19041.0\SHARED\WINAPIFAMILY.H
C:\PROGRAM FILES (X86)\WINDOWS KITS\10\INCLUDE\10.0.19041.0\SHARED\WINPACKAGEFAMILY.H
C:\PROGRAM FILES (X86)\WINDOWS KITS\10\INCLUDE\10.0.19041.0\SHARED\SDKDDKVER.H
C:\PROGRAM FILES (X86)\MICROSOFT VISUAL STUDIO\2019\PROFESSIONAL\VC\TOOLS\MSVC\14.29.30133\INCLUDE\EXCPT.H
C:\PROGRAM FILES (X86)\WINDOWS KITS\10\INCLUDE\10.0.19041.0\SHARED\WINDEF.H
C:\PROGRAM FILES (X86)\WINDOWS KITS\10\INCLUDE\10.0.19041.0\SHARED\MINWINDEF.H
C:\PROGRAM FILES (X86)\WINDOWS KITS\10\INCLUDE\10.0.19041.0\SHARED\SPECSTRINGS.H
C:\PROGRAM FILES (X86)\WINDOWS KITS\10\INCLUDE\10.0.19041.0\SHARED\SPECSTRINGS_STRICT.H
C:\PROGRAM FILES (X86)\WINDOWS KITS\10\INCLUDE\10.0.19041.0\SHARED\SPECSTRINGS_UNDEF.H
C:\PROGRAM FILES (X86)\WINDOWS KITS\10\INCLUDE\10.0.19041.0\SHARED\DRIVERSPECS.H
C:\PROGRAM FILES (X86)\WINDOWS KITS\10\INCLUDE\10.0.19041.0\SHARED\SDV_DRIVERSPECS.H
C:\PROGRAM FILES (X86)\WINDOWS KITS\10\INCLUDE\10.0.19041.0\UM\WINNT.H
C:\PROGRAM FILES (X86)\WINDOWS KITS\10\INCLUDE\10.0.19041.0\SHARED\KERNELSPECS.H
C:\PROGRAM FILES (X86)\WINDOWS KITS\10\INCLUDE\10.0.19041.0\SHARED\BASETSD.H
C:\PROGRAM FILES (X86)\WINDOWS KITS\10\INCLUDE\10.0.19041.0\SHARED\GUIDDEF.H
C:\PROGRAM FILES (X86)\WINDOWS KITS\10\INCLUDE\10.0.19041.0\SHARED\PSHPACK4.H
C:\PROGRAM FILES (X86)\WINDOWS KITS\10\INCLUDE\10.0.19041.0\SHARED\POPPACK.H
C:\PROGRAM FILES (X86)\WINDOWS KITS\10\INCLUDE\10.0.19041.0\SHARED\PSHPACK2.H
C:\PROGRAM FILES (X86)\WINDOWS KITS\10\INCLUDE\10.0.19041.0\SHARED\PSHPACK8.H
C:\PROGRAM FILES (X86)\WINDOWS KITS\10\INCLUDE\10.0.19041.0\SHARED\PSHPACK1.H
C:\PROGRAM FILES (X86)\WINDOWS KITS\10\INCLUDE\10.0.19041.0\SHARED\APISET.H
C:\PROGRAM FILES (X86)\WINDOWS KITS\10\INCLUDE\10.0.19041.0\SHARED\KTMTYPES.H
C:\PROGRAM FILES (X86)\WINDOWS KITS\10\INCLUDE\10.0.19041.0\UM\WINBASE.H
C:\PROGRAM FILES (X86)\WINDOWS KITS\10\INCLUDE\10.0.19041.0\SHARED\APISETCCONV.H
C:\PROGRAM FILES (X86)\WINDOWS KITS\10\INCLUDE\10.0.19041.0\UM\MINWINBASE.H
C:\PROGRAM FILES (X86)\WINDOWS KITS\10\INCLUDE\10.0.19041.0\UM\APIQUERY2.H
C:\PROGRAM FILES (X86)\WINDOWS KITS\10\INCLUDE\10.0.19041.0\UM\PROCESSENV.H
C:\PROGRAM FILES (X86)\WINDOWS KITS\10\INCLUDE\10.0.19041.0\UM\FILEAPIFROMAPP.H
C:\PROGRAM FILES (X86)\WINDOWS KITS\10\INCLUDE\10.0.19041.0\UM\FILEAPI.H
C:\PROGRAM FILES (X86)\WINDOWS KITS\10\INCLUDE\10.0.19041.0\UM\DEBUGAPI.H
C:\PROGRAM FILES (X86)\WINDOWS KITS\10\INCLUDE\10.0.19041.0\UM\UTILAPISET.H
C:\PROGRAM FILES (X86)\WINDOWS KITS\10\INCLUDE\10.0.19041.0\UM\HANDLEAPI.H
C:\PROGRAM FILES (X86)\WINDOWS KITS\10\INCLUDE\10.0.19041.0\UM\ERRHANDLINGAPI.H
C:\PROGRAM FILES (X86)\WINDOWS KITS\10\INCLUDE\10.0.19041.0\UM\FIBERSAPI.H
C:\PROGRAM FILES (X86)\WINDOWS KITS\10\INCLUDE\10.0.19041.0\UM\NAMEDPIPEAPI.H
C:\PROGRAM FILES (X86)\WINDOWS KITS\10\INCLUDE\10.0.19041.0\UM\PROFILEAPI.H
C:\PROGRAM FILES (X86)\WINDOWS KITS\10\INCLUDE\10.0.19041.0\UM\HEAPAPI.H
C:\PROGRAM FILES (X86)\WINDOWS KITS\10\INCLUDE\10.0.19041.0\UM\IOAPISET.H
C:\PROGRAM FILES (X86)\WINDOWS KITS\10\INCLUDE\10.0.19041.0\UM\SYNCHAPI.H
C:\PROGRAM FILES (X86)\WINDOWS KITS\10\INCLUDE\10.0.19041.0\UM\INTERLOCKEDAPI.H
C:\PROGRAM FILES (X86)\WINDOWS KITS\10\INCLUDE\10.0.19041.0\UM\PROCESSTHREADSAPI.H
C:\PROGRAM FILES (X86)\WINDOWS KITS\10\INCLUDE\10.0.19041.0\UM\SYSINFOAPI.H
C:\PROGRAM FILES (X86)\WINDOWS KITS\10\INCLUDE\10.0.19041.0\UM\MEMORYAPI.H
C:\PROGRAM FILES (X86)\WINDOWS KITS\10\INCLUDE\10.0.19041.0\UM\ENCLAVEAPI.H
C:\PROGRAM FILES (X86)\WINDOWS KITS\10\INCLUDE\10.0.19041.0\UM\THREADPOOLLEGACYAPISET.H
C:\PROGRAM FILES (X86)\WINDOWS KITS\10\INCLUDE\10.0.19041.0\UM\THREADPOOLAPISET.H
C:\PROGRAM FILES (X86)\WINDOWS KITS\10\INCLUDE\10.0.19041.0\UM\JOBAPI.H
C:\PROGRAM FILES (X86)\WINDOWS KITS\10\INCLUDE\10.0.19041.0\UM\JOBAPI2.H
C:\PROGRAM FILES (X86)\WINDOWS KITS\10\INCLUDE\10.0.19041.0\UM\WOW64APISET.H
C:\PROGRAM FILES (X86)\WINDOWS KITS\10\INCLUDE\10.0.19041.0\UM\LIBLOADERAPI.H
C:\PROGRAM FILES (X86)\WINDOWS KITS\10\INCLUDE\10.0.19041.0\UM\SECURITYBASEAPI.H
C:\PROGRAM FILES (X86)\WINDOWS KITS\10\INCLUDE\10.0.19041.0\UM\NAMESPACEAPI.H
C:\PROGRAM FILES (X86)\WINDOWS KITS\10\INCLUDE\10.0.19041.0\UM\SYSTEMTOPOLOGYAPI.H
C:\PROGRAM FILES (X86)\WINDOWS KITS\10\INCLUDE\10.0.19041.0\UM\PROCESSTOPOLOGYAPI.H
C:\PROGRAM FILES (X86)\WINDOWS KITS\10\INCLUDE\10.0.19041.0\UM\SECURITYAPPCONTAINER.H
C:\PROGRAM FILES (X86)\WINDOWS KITS\10\INCLUDE\10.0.19041.0\UM\REALTIMEAPISET.H
C:\PROGRAM FILES (X86)\WINDOWS KITS\10\INCLUDE\10.0.19041.0\SHARED\WINERROR.H
C:\PROGRAM FILES (X86)\WINDOWS KITS\10\INCLUDE\10.0.19041.0\UM\TIMEZONEAPI.H
C:\PROGRAM FILES (X86)\WINDOWS KITS\10\INCLUDE\10.0.19041.0\UM\WINGDI.H
C:\PROGRAM FILES (X86)\WINDOWS KITS\10\INCLUDE\10.0.19041.0\UM\WINUSER.H
C:\PROGRAM FILES (X86)\WINDOWS KITS\10\INCLUDE\10.0.19041.0\SHARED\TVOUT.H
C:\PROGRAM FILES (X86)\WINDOWS KITS\10\INCLUDE\10.0.19041.0\UM\WINNLS.H
C:\PROGRAM FILES (X86)\WINDOWS KITS\10\INCLUDE\10.0.19041.0\UM\DATETIMEAPI.H
C:\PROGRAM FILES (X86)\WINDOWS KITS\10\INCLUDE\10.0.19041.0\UM\STRINGAPISET.H
C:\PROGRAM FILES (X86)\WINDOWS KITS\10\INCLUDE\10.0.19041.0\UM\WINCON.H
C:\PROGRAM FILES (X86)\WINDOWS KITS\10\INCLUDE\10.0.19041.0\UM\WINCONTYPES.H
C:\PROGRAM FILES (X86)\WINDOWS KITS\10\INCLUDE\10.0.19041.0\UM\CONSOLEAPI.H
C:\PROGRAM FILES (X86)\WINDOWS KITS\10\INCLUDE\10.0.19041.0\UM\CONSOLEAPI2.H
C:\PROGRAM FILES (X86)\WINDOWS KITS\10\INCLUDE\10.0.19041.0\UM\CONSOLEAPI3.H
C:\PROGRAM FILES (X86)\WINDOWS KITS\10\INCLUDE\10.0.19041.0\UM\WINVER.H
C:\PROGRAM FILES (X86)\WINDOWS KITS\10\INCLUDE\10.0.19041.0\UM\VERRSRC.H
C:\PROGRAM FILES (X86)\WINDOWS KITS\10\INCLUDE\10.0.19041.0\UM\WINREG.H
C:\PROGRAM FILES (X86)\WINDOWS KITS\10\INCLUDE\10.0.19041.0\UM\REASON.H
C:\PROGRAM FILES (X86)\WINDOWS KITS\10\INCLUDE\10.0.19041.0\UM\WINNETWK.H
C:\PROGRAM FILES (X86)\WINDOWS KITS\10\INCLUDE\10.0.19041.0\SHARED\WNNC.H
C:\PROGRAM FILES (X86)\WINDOWS KITS\10\INCLUDE\10.0.19041.0\SHARED\CDERR.H
C:\PROGRAM FILES (X86)\WINDOWS KITS\10\INCLUDE\10.0.19041.0\UM\DDE.H
C:\PROGRAM FILES (X86)\WINDOWS KITS\10\INCLUDE\10.0.19041.0\UM\DDEML.H
C:\PROGRAM FILES (X86)\WINDOWS KITS\10\INCLUDE\10.0.19041.0\UM\DLGS.H
C:\PROGRAM FILES (X86)\WINDOWS KITS\10\INCLUDE\10.0.19041.0\UM\LZEXPAND.H
C:\PROGRAM FILES (X86)\WINDOWS KITS\10\INCLUDE\10.0.19041.0\UM\MMSYSTEM.H
C:\PROGRAM FILES (X86)\WINDOWS KITS\10\INCLUDE\10.0.19041.0\UM\MMSYSCOM.H
C:\PROGRAM FILES (X86)\WINDOWS KITS\10\INCLUDE\10.0.19041.0\UM\MCIAPI.H
C:\PROGRAM FILES (X86)\WINDOWS KITS\10\INCLUDE\10.0.19041.0\UM\MMISCAPI.H
C:\PROGRAM FILES (X86)\WINDOWS KITS\10\INCLUDE\10.0.19041.0\UM\MMISCAPI2.H
C:\PROGRAM FILES (X86)\WINDOWS KITS\10\INCLUDE\10.0.19041.0\UM\PLAYSOUNDAPI.H
C:\PROGRAM FILES (X86)\WINDOWS KITS\10\INCLUDE\10.0.19041.0\UM\MMEAPI.H
C:\PROGRAM FILES (X86)\WINDOWS KITS\10\INCLUDE\10.0.19041.0\UM\TIMEAPI.H
C:\PROGRAM FILES (X86)\WINDOWS KITS\10\INCLUDE\10.0.19041.0\UM\JOYSTICKAPI.H
C:\PROGRAM FILES (X86)\WINDOWS KITS\10\INCLUDE\10.0.19041.0\UM\NB30.H
C:\PROGRAM FILES (X86)\WINDOWS KITS\10\INCLUDE\10.0.19041.0\SHARED\RPC.H
C:\PROGRAM FILES (X86)\WINDOWS KITS\10\INCLUDE\10.0.19041.0\SHARED\RPCDCE.H
C:\PROGRAM FILES (X86)\WINDOWS KITS\10\INCLUDE\10.0.19041.0\SHARED\RPCDCEP.H
C:\PROGRAM FILES (X86)\WINDOWS KITS\10\INCLUDE\10.0.19041.0\UM\RPCNSI.H
C:\PROGRAM FILES (X86)\WINDOWS KITS\10\INCLUDE\10.0.19041.0\SHARED\RPCNTERR.H
C:\PROGRAM FILES (X86)\WINDOWS KITS\10\INCLUDE\10.0.19041.0\SHARED\RPCASYNC.H
C:\PROGRAM FILES (X86)\WINDOWS KITS\10\INCLUDE\10.0.19041.0\UM\SHELLAPI.H
C:\PROGRAM FILES (X86)\WINDOWS KITS\10\INCLUDE\10.0.19041.0\UM\WINPERF.H
C:\PROGRAM FILES (X86)\WINDOWS KITS\10\INCLUDE\10.0.19041.0\UM\WINSOCK.H
C:\PROGRAM FILES (X86)\WINDOWS KITS\10\INCLUDE\10.0.19041.0\UM\WINCRYPT.H
C:\PROGRAM FILES (X86)\WINDOWS KITS\10\INCLUDE\10.0.19041.0\SHARED\BCRYPT.H
C:\PROGRAM FILES (X86)\WINDOWS KITS\10\INCLUDE\10.0.19041.0\UM\NCRYPT.H
C:\PROGRAM FILES (X86)\WINDOWS KITS\10\INCLUDE\10.0.19041.0\UM\DPAPI.H
C:\PROGRAM FILES (X86)\WINDOWS KITS\10\INCLUDE\10.0.19041.0\UM\WINEFS.H
C:\PROGRAM FILES (X86)\WINDOWS KITS\10\INCLUDE\10.0.19041.0\UM\WINSCARD.H
C:\PROGRAM FILES (X86)\WINDOWS KITS\10\INCLUDE\10.0.19041.0\SHARED\WTYPES.H
C:\PROGRAM FILES (X86)\WINDOWS KITS\10\INCLUDE\10.0.19041.0\SHARED\RPCNDR.H
C:\PROGRAM FILES (X86)\WINDOWS KITS\10\INCLUDE\10.0.19041.0\UM\RPCNSIP.H
C:\PROGRAM FILES (X86)\WINDOWS KITS\10\INCLUDE\10.0.19041.0\SHARED\RPCSAL.H
C:\PROGRAM FILES (X86)\WINDOWS KITS\10\INCLUDE\10.0.19041.0\SHARED\WTYPESBASE.H
C:\PROGRAM FILES (X86)\WINDOWS KITS\10\INCLUDE\10.0.19041.0\UM\WINIOCTL.H
C:\PROGRAM FILES (X86)\WINDOWS KITS\10\INCLUDE\10.0.19041.0\SHARED\WINSMCRD.H
C:\PROGRAM FILES (X86)\WINDOWS KITS\10\INCLUDE\10.0.19041.0\UM\WINSPOOL.H
C:\PROGRAM FILES (X86)\WINDOWS KITS\10\INCLUDE\10.0.19041.0\UM\PRSHT.H
C:\PROGRAM FILES (X86)\WINDOWS KITS\10\INCLUDE\10.0.19041.0\UM\OLE2.H
C:\PROGRAM FILES (X86)\WINDOWS KITS\10\INCLUDE\10.0.19041.0\UM\OBJBASE.H
C:\PROGRAM FILES (X86)\WINDOWS KITS\10\INCLUDE\10.0.19041.0\UM\COMBASEAPI.H
C:\PROGRAM FILES (X86)\WINDOWS KITS\10\INCLUDE\10.0.19041.0\UM\UNKNWNBASE.H
C:\PROGRAM FILES (X86)\WINDOWS KITS\10\INCLUDE\10.0.19041.0\UM\OBJIDLBASE.H
C:\PROGRAM FILES (X86)\WINDOWS KITS\10\INCLUDE\10.0.19041.0\UM\CGUID.H
C:\PROGRAM FILES (X86)\WINDOWS KITS\10\INCLUDE\10.0.19041.0\UM\COML2API.H
C:\PROGRAM FILES (X86)\WINDOWS KITS\10\INCLUDE\10.0.19041.0\UM\OBJIDL.H
C:\PROGRAM FILES (X86)\WINDOWS KITS\10\INCLUDE\10.0.19041.0\UM\UNKNWN.H
C:\PROGRAM FILES (X86)\WINDOWS KITS\10\INCLUDE\10.0.19041.0\UM\PROPIDLBASE.H
C:\PROGRAM FILES (X86)\WINDOWS KITS\10\INCLUDE\10.0.19041.0\UM\OAIDL.H
C:\PROGRAM FILES (X86)\WINDOWS KITS\10\INCLUDE\10.0.19041.0\UM\URLMON.H
C:\PROGRAM FILES (X86)\WINDOWS KITS\10\INCLUDE\10.0.19041.0\UM\OLEIDL.H
C:\PROGRAM FILES (X86)\WINDOWS KITS\10\INCLUDE\10.0.19041.0\UM\SERVPROV.H
C:\PROGRAM FILES (X86)\WINDOWS KITS\10\INCLUDE\10.0.19041.0\UM\MSXML.H
C:\PROGRAM FILES (X86)\WINDOWS KITS\10\INCLUDE\10.0.19041.0\UM\PROPIDL.H
C:\PROGRAM FILES (X86)\WINDOWS KITS\10\INCLUDE\10.0.19041.0\UM\OLEAUTO.H
C:\PROGRAM FILES (X86)\WINDOWS KITS\10\INCLUDE\10.0.19041.0\UM\COMMDLG.H
C:\PROGRAM FILES (X86)\WINDOWS KITS\10\INCLUDE\10.0.19041.0\SHARED\STRALIGN.H
C:\PROGRAM FILES (X86)\WINDOWS KITS\10\INCLUDE\10.0.19041.0\UM\WINSVC.H
C:\PROGRAM FILES (X86)\WINDOWS KITS\10\INCLUDE\10.0.19041.0\UM\MCX.H
C:\PROGRAM FILES (X86)\WINDOWS KITS\10\INCLUDE\10.0.19041.0\UM\IMM.H
C:\PROGRAM FILES (X86)\WINDOWS KITS\10\INCLUDE\10.0.19041.0\UM\IME_CMODES.H
C:\PROGRAM FILES\MVTEC\HALCON-20.11-STEADY\INCLUDE\HALCONCPP\HALCONCPPFORWARDS.H
C:\PROGRAM FILES\MVTEC\HALCON-20.11-STEADY\INCLUDE\HALCONCPP\HTUPLE.H
C:\PROGRAM FILES\MVTEC\HALCON-20.11-STEADY\INCLUDE\HALCONCPP\HTUPLEELEMENT.H
C:\PROGRAM FILES\MVTEC\HALCON-20.11-STEADY\INCLUDE\HALCONCPP\HSTRING.H
C:\PROGRAM FILES\MVTEC\HALCON-20.11-STEADY\INCLUDE\HALCONCPP\HSMARTPTR.H
C:\PROGRAM FILES\MVTEC\HALCON-20.11-STEADY\INCLUDE\HALCONCPP\HHANDLEBASE.H
C:\PROGRAM FILES\MVTEC\HALCON-20.11-STEADY\INCLUDE\HALCONCPP\HHANDLE.H
C:\PROGRAM FILES\MVTEC\HALCON-20.11-STEADY\INCLUDE\HALCONCPP\HVECTOR.H
C:\PROGRAM FILES\MVTEC\HALCON-20.11-STEADY\INCLUDE\HALCONCPP\HOBJECTBASE.H
C:\PROGRAM FILES\MVTEC\HALCON-20.11-STEADY\INCLUDE\HALCONCPP\HOBJECT.H
C:\PROGRAM FILES\MVTEC\HALCON-20.11-STEADY\INCLUDE\HALCONCPP\HEXCEPTION.H
C:\PROGRAM FILES\MVTEC\HALCON-20.11-STEADY\INCLUDE\HALCONCPP\HDEVWINDOWSTACK.H
C:\PROGRAM FILES\MVTEC\HALCON-20.11-STEADY\INCLUDE\HALCONCPP\HDATABASE.H
C:\PROGRAM FILES\MVTEC\HALCON-20.11-STEADY\INCLUDE\HALCONCPP\HOPERATOROVERLOADS.H
C:\PROGRAM FILES\MVTEC\HALCON-20.11-STEADY\INCLUDE\HALCONCPP\HALCONCPPINCLUDES.H
C:\PROGRAM FILES\MVTEC\HALCON-20.11-STEADY\INCLUDE\HALCONCPP\HOPERATORSET.H
C:\PROGRAM FILES\MVTEC\HALCON-20.11-STEADY\INCLUDE\HALCONCPP\HFEATURESET.H
C:\PROGRAM FILES\MVTEC\HALCON-20.11-STEADY\INCLUDE\HALCONCPP\HTEMPLATE.H
C:\PROGRAM FILES\MVTEC\HALCON-20.11-STEADY\INCLUDE\HALCONCPP\HNCCMODEL.H
C:\PROGRAM FILES\MVTEC\HALCON-20.11-STEADY\INCLUDE\HALCONCPP\HSHAPEMODEL.H
C:\PROGRAM FILES\MVTEC\HALCON-20.11-STEADY\INCLUDE\HALCONCPP\HOBJECTMODEL3D.H
C:\PROGRAM FILES\MVTEC\HALCON-20.11-STEADY\INCLUDE\HALCONCPP\HSURFACEMODEL.H
C:\PROGRAM FILES\MVTEC\HALCON-20.11-STEADY\INCLUDE\HALCONCPP\HSURFACEMATCHINGRESULT.H
C:\PROGRAM FILES\MVTEC\HALCON-20.11-STEADY\INCLUDE\HALCONCPP\HDEFORMABLESURFACEMODEL.H
C:\PROGRAM FILES\MVTEC\HALCON-20.11-STEADY\INCLUDE\HALCONCPP\HDEFORMABLESURFACEMATCHINGRESULT.H
C:\PROGRAM FILES\MVTEC\HALCON-20.11-STEADY\INCLUDE\HALCONCPP\HSHAPEMODEL3D.H
C:\PROGRAM FILES\MVTEC\HALCON-20.11-STEADY\INCLUDE\HALCONCPP\HDEFORMABLEMODEL.H
C:\PROGRAM FILES\MVTEC\HALCON-20.11-STEADY\INCLUDE\HALCONCPP\HDESCRIPTORMODEL.H
C:\PROGRAM FILES\MVTEC\HALCON-20.11-STEADY\INCLUDE\HALCONCPP\HVARIATIONMODEL.H
C:\PROGRAM FILES\MVTEC\HALCON-20.11-STEADY\INCLUDE\HALCONCPP\HCALIBDATA.H
C:\PROGRAM FILES\MVTEC\HALCON-20.11-STEADY\INCLUDE\HALCONCPP\HCAMERASETUPMODEL.H
C:\PROGRAM FILES\MVTEC\HALCON-20.11-STEADY\INCLUDE\HALCONCPP\HSTEREOMODEL.H
C:\PROGRAM FILES\MVTEC\HALCON-20.11-STEADY\INCLUDE\HALCONCPP\HCOMPONENTTRAINING.H
C:\PROGRAM FILES\MVTEC\HALCON-20.11-STEADY\INCLUDE\HALCONCPP\HCOMPONENTMODEL.H
C:\PROGRAM FILES\MVTEC\HALCON-20.11-STEADY\INCLUDE\HALCONCPP\HGNUPLOT.H
C:\PROGRAM FILES\MVTEC\HALCON-20.11-STEADY\INCLUDE\HALCONCPP\HSOCKET.H
C:\PROGRAM FILES\MVTEC\HALCON-20.11-STEADY\INCLUDE\HALCONCPP\HSERIAL.H
C:\PROGRAM FILES\MVTEC\HALCON-20.11-STEADY\INCLUDE\HALCONCPP\HMEASURE.H
C:\PROGRAM FILES\MVTEC\HALCON-20.11-STEADY\INCLUDE\HALCONCPP\HMATRIX.H
C:\PROGRAM FILES\MVTEC\HALCON-20.11-STEADY\INCLUDE\HALCONCPP\HFUNCTION1D.H
C:\PROGRAM FILES\MVTEC\HALCON-20.11-STEADY\INCLUDE\HALCONCPP\HBARCODE.H
C:\PROGRAM FILES\MVTEC\HALCON-20.11-STEADY\INCLUDE\HALCONCPP\HDATACODE2D.H
C:\PROGRAM FILES\MVTEC\HALCON-20.11-STEADY\INCLUDE\HALCONCPP\HMISC.H
C:\PROGRAM FILES\MVTEC\HALCON-20.11-STEADY\INCLUDE\HALCONCPP\HIMAGE.H
C:\PROGRAM FILES\MVTEC\HALCON-20.11-STEADY\INCLUDE\HALCONCPP\HREGION.H
C:\PROGRAM FILES\MVTEC\HALCON-20.11-STEADY\INCLUDE\HALCONCPP\HXLD.H
C:\PROGRAM FILES\MVTEC\HALCON-20.11-STEADY\INCLUDE\HALCONCPP\HXLDCONT.H
C:\PROGRAM FILES\MVTEC\HALCON-20.11-STEADY\INCLUDE\HALCONCPP\HXLDPOLY.H
C:\PROGRAM FILES\MVTEC\HALCON-20.11-STEADY\INCLUDE\HALCONCPP\HXLDPARA.H
C:\PROGRAM FILES\MVTEC\HALCON-20.11-STEADY\INCLUDE\HALCONCPP\HXLDMODPARA.H
C:\PROGRAM FILES\MVTEC\HALCON-20.11-STEADY\INCLUDE\HALCONCPP\HXLDEXTPARA.H
C:\PROGRAM FILES\MVTEC\HALCON-20.11-STEADY\INCLUDE\HALCONCPP\HWINDOW.H
C:\PROGRAM FILES\MVTEC\HALCON-20.11-STEADY\INCLUDE\HALCONCPP\HFILE.H
C:\PROGRAM FILES\MVTEC\HALCON-20.11-STEADY\INCLUDE\HALCONCPP\HFRAMEGRABBER.H
C:\PROGRAM FILES\MVTEC\HALCON-20.11-STEADY\INCLUDE\HALCONCPP\HIODEVICE.H
C:\PROGRAM FILES\MVTEC\HALCON-20.11-STEADY\INCLUDE\HALCONCPP\HIOCHANNEL.H
C:\PROGRAM FILES\MVTEC\HALCON-20.11-STEADY\INCLUDE\HALCONCPP\HOCRBOX.H
C:\PROGRAM FILES\MVTEC\HALCON-20.11-STEADY\INCLUDE\HALCONCPP\HOCRMLP.H
C:\PROGRAM FILES\MVTEC\HALCON-20.11-STEADY\INCLUDE\HALCONCPP\HOCRSVM.H
C:\PROGRAM FILES\MVTEC\HALCON-20.11-STEADY\INCLUDE\HALCONCPP\HLEXICON.H
C:\PROGRAM FILES\MVTEC\HALCON-20.11-STEADY\INCLUDE\HALCONCPP\HOCV.H
C:\PROGRAM FILES\MVTEC\HALCON-20.11-STEADY\INCLUDE\HALCONCPP\HCLASSBOX.H
C:\PROGRAM FILES\MVTEC\HALCON-20.11-STEADY\INCLUDE\HALCONCPP\HCLASSMLP.H
C:\PROGRAM FILES\MVTEC\HALCON-20.11-STEADY\INCLUDE\HALCONCPP\HCLASSSVM.H
C:\PROGRAM FILES\MVTEC\HALCON-20.11-STEADY\INCLUDE\HALCONCPP\HCLASSGMM.H
C:\PROGRAM FILES\MVTEC\HALCON-20.11-STEADY\INCLUDE\HALCONCPP\HDLCLASSIFIER.H
C:\PROGRAM FILES\MVTEC\HALCON-20.11-STEADY\INCLUDE\HALCONCPP\HDLCLASSIFIERRESULT.H
C:\PROGRAM FILES\MVTEC\HALCON-20.11-STEADY\INCLUDE\HALCONCPP\HDLCLASSIFIERTRAINRESULT.H
C:\PROGRAM FILES\MVTEC\HALCON-20.11-STEADY\INCLUDE\HALCONCPP\HDLDEVICE.H
C:\PROGRAM FILES\MVTEC\HALCON-20.11-STEADY\INCLUDE\HALCONCPP\HDLMODEL.H
C:\PROGRAM FILES\MVTEC\HALCON-20.11-STEADY\INCLUDE\HALCONCPP\HDLPRUNE.H
C:\PROGRAM FILES\MVTEC\HALCON-20.11-STEADY\INCLUDE\HALCONCPP\HDLMODELOCR.H
C:\PROGRAM FILES\MVTEC\HALCON-20.11-STEADY\INCLUDE\HALCONCPP\HCOLORTRANSLUT.H
C:\PROGRAM FILES\MVTEC\HALCON-20.11-STEADY\INCLUDE\HALCONCPP\HBGESTI.H
C:\PROGRAM FILES\MVTEC\HALCON-20.11-STEADY\INCLUDE\HALCONCPP\HSYSTEM.H
C:\PROGRAM FILES\MVTEC\HALCON-20.11-STEADY\INCLUDE\HALCONCPP\HINFO.H
C:\PROGRAM FILES\MVTEC\HALCON-20.11-STEADY\INCLUDE\HALCONCPP\HCAMPAR.H
C:\PROGRAM FILES\MVTEC\HALCON-20.11-STEADY\INCLUDE\HALCONCPP\HPOSE.H
C:\PROGRAM FILES\MVTEC\HALCON-20.11-STEADY\INCLUDE\HALCONCPP\HHOMMAT2D.H
C:\PROGRAM FILES\MVTEC\HALCON-20.11-STEADY\INCLUDE\HALCONCPP\HHOMMAT3D.H
C:\PROGRAM FILES\MVTEC\HALCON-20.11-STEADY\INCLUDE\HALCONCPP\HQUATERNION.H
C:\PROGRAM FILES\MVTEC\HALCON-20.11-STEADY\INCLUDE\HALCONCPP\HDUALQUATERNION.H
C:\PROGRAM FILES\MVTEC\HALCON-20.11-STEADY\INCLUDE\HALCONCPP\HSHEETOFLIGHTMODEL.H
C:\PROGRAM FILES\MVTEC\HALCON-20.11-STEADY\INCLUDE\HALCONCPP\HCLASSLUT.H
C:\PROGRAM FILES\MVTEC\HALCON-20.11-STEADY\INCLUDE\HALCONCPP\HCOMPUTEDEVICE.H
C:\PROGRAM FILES\MVTEC\HALCON-20.11-STEADY\INCLUDE\HALCONCPP\HMUTEX.H
C:\PROGRAM FILES\MVTEC\HALCON-20.11-STEADY\INCLUDE\HALCONCPP\HEVENT.H
C:\PROGRAM FILES\MVTEC\HALCON-20.11-STEADY\INCLUDE\HALCONCPP\HCONDITION.H
C:\PROGRAM FILES\MVTEC\HALCON-20.11-STEADY\INCLUDE\HALCONCPP\HBARRIER.H
C:\PROGRAM FILES\MVTEC\HALCON-20.11-STEADY\INCLUDE\HALCONCPP\HMESSAGE.H
C:\PROGRAM FILES\MVTEC\HALCON-20.11-STEADY\INCLUDE\HALCONCPP\HMESSAGEQUEUE.H
C:\PROGRAM FILES\MVTEC\HALCON-20.11-STEADY\INCLUDE\HALCONCPP\HDICT.H
C:\PROGRAM FILES\MVTEC\HALCON-20.11-STEADY\INCLUDE\HALCONCPP\HTEXTMODEL.H
C:\PROGRAM FILES\MVTEC\HALCON-20.11-STEADY\INCLUDE\HALCONCPP\HTEXTRESULT.H
C:\PROGRAM FILES\MVTEC\HALCON-20.11-STEADY\INCLUDE\HALCONCPP\HMETROLOGYMODEL.H
C:\PROGRAM FILES\MVTEC\HALCON-20.11-STEADY\INCLUDE\HALCONCPP\HSERIALIZEDITEM.H
C:\PROGRAM FILES\MVTEC\HALCON-20.11-STEADY\INCLUDE\HALCONCPP\HCLASSKNN.H
C:\PROGRAM FILES\MVTEC\HALCON-20.11-STEADY\INCLUDE\HALCONCPP\HOCRKNN.H
C:\PROGRAM FILES\MVTEC\HALCON-20.11-STEADY\INCLUDE\HALCONCPP\HOCRCNN.H
C:\PROGRAM FILES\MVTEC\HALCON-20.11-STEADY\INCLUDE\HALCONCPP\HCLASSTRAINDATA.H
C:\PROGRAM FILES\MVTEC\HALCON-20.11-STEADY\INCLUDE\HALCONCPP\HSCATTEREDDATAINTERPOLATOR.H
C:\PROGRAM FILES\MVTEC\HALCON-20.11-STEADY\INCLUDE\HALCONCPP\HSAMPLEIDENTIFIER.H
C:\PROGRAM FILES\MVTEC\HALCON-20.11-STEADY\INCLUDE\HALCONCPP\HXLDDISTTRANS.H
C:\PROGRAM FILES\MVTEC\HALCON-20.11-STEADY\INCLUDE\HALCONCPP\HDRAWINGOBJECT.H
C:\PROGRAM FILES\MVTEC\HALCON-20.11-STEADY\INCLUDE\HALCONCPP\HSCENE3D.H
C:\PROGRAM FILES\MVTEC\HALCON-20.11-STEADY\INCLUDE\HALCONCPP\HBEADINSPECTIONMODEL.H
C:\PROGRAM FILES\MVTEC\HALCON-20.11-STEADY\INCLUDE\HALCONCPP\HTEXTUREINSPECTIONMODEL.H
C:\PROGRAM FILES\MVTEC\HALCON-20.11-STEADY\INCLUDE\HALCONCPP\HTEXTUREINSPECTIONRESULT.H
C:\PROGRAM FILES\MVTEC\HALCON-20.11-STEADY\INCLUDE\HALCONCPP\HSTRUCTUREDLIGHTMODEL.H
C:\PROGRAM FILES\MVTEC\HALCON-20.11-STEADY\INCLUDE\HALCONCPP\HIOSTREAM.H
C:\PROGRAM FILES (X86)\MICROSOFT VISUAL STUDIO\2019\PROFESSIONAL\VC\TOOLS\MSVC\14.29.30133\INCLUDE\FSTREAM
C:\USERS\R_SHIMIZU\DOCUMENTS\PROJ\OPTICALFLOW\OPTICALFLOW_TIME\OPTICALFLOW_TIME\COMMON.H
^C:\USERS\R_SHIMIZU\DOCUMENTS\PROJ\OPTICALFLOW\OPTICALFLOW_TIME\OPTICALFLOW_TIME\HALCON_OPTFLOW.CPP
C:\PROGRAM FILES\MVTEC\HALCON-20.11-STEADY\INCLUDE\HALCONCPP\HALCONCPP.H
C:\PROGRAM FILES\MVTEC\HALCON-20.11-STEADY\INCLUDE\HALCON.H
C:\PROGRAM FILES (X86)\WINDOWS KITS\10\INCLUDE\10.0.19041.0\UCRT\MATH.H
C:\PROGRAM FILES (X86)\WINDOWS KITS\10\INCLUDE\10.0.19041.0\UCRT\CORECRT_MATH.H
C:\PROGRAM FILES (X86)\WINDOWS KITS\10\INCLUDE\10.0.19041.0\UCRT\CORECRT.H
C:\PROGRAM FILES (X86)\MICROSOFT VISUAL STUDIO\2019\PROFESSIONAL\VC\TOOLS\MSVC\14.29.30133\INCLUDE\VCRUNTIME.H
C:\PROGRAM FILES (X86)\MICROSOFT VISUAL STUDIO\2019\PROFESSIONAL\VC\TOOLS\MSVC\14.29.30133\INCLUDE\SAL.H
C:\PROGRAM FILES (X86)\MICROSOFT VISUAL STUDIO\2019\PROFESSIONAL\VC\TOOLS\MSVC\14.29.30133\INCLUDE\CONCURRENCYSAL.H
C:\PROGRAM FILES (X86)\MICROSOFT VISUAL STUDIO\2019\PROFESSIONAL\VC\TOOLS\MSVC\14.29.30133\INCLUDE\VADEFS.H
C:\PROGRAM FILES (X86)\WINDOWS KITS\10\INCLUDE\10.0.19041.0\UCRT\STDIO.H
C:\PROGRAM FILES (X86)\WINDOWS KITS\10\INCLUDE\10.0.19041.0\UCRT\CORECRT_WSTDIO.H
C:\PROGRAM FILES (X86)\WINDOWS KITS\10\INCLUDE\10.0.19041.0\UCRT\CORECRT_STDIO_CONFIG.H
C:\PROGRAM FILES (X86)\WINDOWS KITS\10\INCLUDE\10.0.19041.0\UCRT\STRING.H
C:\PROGRAM FILES (X86)\WINDOWS KITS\10\INCLUDE\10.0.19041.0\UCRT\CORECRT_MEMORY.H
C:\PROGRAM FILES (X86)\WINDOWS KITS\10\INCLUDE\10.0.19041.0\UCRT\CORECRT_MEMCPY_S.H
C:\PROGRAM FILES (X86)\WINDOWS KITS\10\INCLUDE\10.0.19041.0\UCRT\ERRNO.H
C:\PROGRAM FILES (X86)\MICROSOFT VISUAL STUDIO\2019\PROFESSIONAL\VC\TOOLS\MSVC\14.29.30133\INCLUDE\VCRUNTIME_STRING.H
C:\PROGRAM FILES (X86)\WINDOWS KITS\10\INCLUDE\10.0.19041.0\UCRT\CORECRT_WSTRING.H
C:\PROGRAM FILES (X86)\WINDOWS KITS\10\INCLUDE\10.0.19041.0\UCRT\TIME.H
C:\PROGRAM FILES (X86)\WINDOWS KITS\10\INCLUDE\10.0.19041.0\UCRT\CORECRT_WTIME.H
C:\PROGRAM FILES\MVTEC\HALCON-20.11-STEADY\INCLUDE\HVERSNUM.H
C:\PROGRAM FILES\MVTEC\HALCON-20.11-STEADY\INCLUDE\HINTDEF.H
C:\PROGRAM FILES (X86)\WINDOWS KITS\10\INCLUDE\10.0.19041.0\UCRT\FLOAT.H
C:\PROGRAM FILES (X86)\MICROSOFT VISUAL STUDIO\2019\PROFESSIONAL\VC\TOOLS\MSVC\14.29.30133\INCLUDE\LIMITS.H
C:\PROGRAM FILES (X86)\WINDOWS KITS\10\INCLUDE\10.0.19041.0\UCRT\STDLIB.H
C:\PROGRAM FILES (X86)\WINDOWS KITS\10\INCLUDE\10.0.19041.0\UCRT\CORECRT_MALLOC.H
C:\PROGRAM FILES (X86)\WINDOWS KITS\10\INCLUDE\10.0.19041.0\UCRT\CORECRT_SEARCH.H
C:\PROGRAM FILES (X86)\WINDOWS KITS\10\INCLUDE\10.0.19041.0\UCRT\STDDEF.H
C:\PROGRAM FILES (X86)\WINDOWS KITS\10\INCLUDE\10.0.19041.0\UCRT\CORECRT_WSTDLIB.H
C:\PROGRAM FILES\MVTEC\HALCON-20.11-STEADY\INCLUDE\HCLIB\HCLIB_TYPES.H
C:\PROGRAM FILES (X86)\MICROSOFT VISUAL STUDIO\2019\PROFESSIONAL\VC\TOOLS\MSVC\14.29.30133\INCLUDE\STDINT.H
C:\PROGRAM FILES (X86)\MICROSOFT VISUAL STUDIO\2019\PROFESSIONAL\VC\TOOLS\MSVC\14.29.30133\INCLUDE\STDBOOL.H
C:\PROGRAM FILES\MVTEC\HALCON-20.11-STEADY\INCLUDE\HDECLSPEC.H
C:\PROGRAM FILES\MVTEC\HALCON-20.11-STEADY\INCLUDE\HERRORDEF.H
C:\PROGRAM FILES\MVTEC\HALCON-20.11-STEADY\INCLUDE\HCONST.H
C:\PROGRAM FILES\MVTEC\HALCON-20.11-STEADY\INCLUDE\HBASE.H
C:\PROGRAM FILES\MVTEC\HALCON-20.11-STEADY\INCLUDE\IPTYPE.H
C:\PROGRAM FILES\MVTEC\HALCON-20.11-STEADY\INCLUDE\HPARALLEL.H
C:\PROGRAM FILES\MVTEC\HALCON-20.11-STEADY\INCLUDE\HLIB\HALLOC.H
C:\PROGRAM FILES\MVTEC\HALCON-20.11-STEADY\INCLUDE\HMACRO.H
C:\PROGRAM FILES\MVTEC\HALCON-20.11-STEADY\INCLUDE\HEXTERN.H
C:\PROGRAM FILES\MVTEC\HALCON-20.11-STEADY\INCLUDE\HLIB\HBASEGP.H
C:\PROGRAM FILES\MVTEC\HALCON-20.11-STEADY\INCLUDE\HLIB\IOSPY.H
C:\PROGRAM FILES\MVTEC\HALCON-20.11-STEADY\INCLUDE\HLIB\HINSTANCE.H
C:\PROGRAM FILES\MVTEC\HALCON-20.11-STEADY\INCLUDE\HLIB\HINSTANCEDEFINES.H
C:\PROGRAM FILES\MVTEC\HALCON-20.11-STEADY\INCLUDE\HLIB\DBNEW.H
C:\PROGRAM FILES\MVTEC\HALCON-20.11-STEADY\INCLUDE\HLIB\CORE1.H
C:\PROGRAM FILES\MVTEC\HALCON-20.11-STEADY\INCLUDE\HLIB\HXLD.H
C:\PROGRAM FILES\MVTEC\HALCON-20.11-STEADY\INCLUDE\HLIB\HERROR.H
C:\PROGRAM FILES (X86)\MICROSOFT VISUAL STUDIO\2019\PROFESSIONAL\VC\TOOLS\MSVC\14.29.30133\INCLUDE\IOSTREAM
C:\PROGRAM FILES (X86)\MICROSOFT VISUAL STUDIO\2019\PROFESSIONAL\VC\TOOLS\MSVC\14.29.30133\INCLUDE\YVALS_CORE.H
C:\PROGRAM FILES (X86)\MICROSOFT VISUAL STUDIO\2019\PROFESSIONAL\VC\TOOLS\MSVC\14.29.30133\INCLUDE\XKEYCHECK.H
C:\PROGRAM FILES (X86)\MICROSOFT VISUAL STUDIO\2019\PROFESSIONAL\VC\TOOLS\MSVC\14.29.30133\INCLUDE\ISTREAM
C:\PROGRAM FILES (X86)\MICROSOFT VISUAL STUDIO\2019\PROFESSIONAL\VC\TOOLS\MSVC\14.29.30133\INCLUDE\OSTREAM
C:\PROGRAM FILES (X86)\MICROSOFT VISUAL STUDIO\2019\PROFESSIONAL\VC\TOOLS\MSVC\14.29.30133\INCLUDE\IOS
C:\PROGRAM FILES (X86)\MICROSOFT VISUAL STUDIO\2019\PROFESSIONAL\VC\TOOLS\MSVC\14.29.30133\INCLUDE\XLOCNUM
C:\PROGRAM FILES (X86)\MICROSOFT VISUAL STUDIO\2019\PROFESSIONAL\VC\TOOLS\MSVC\14.29.30133\INCLUDE\CLIMITS
C:\PROGRAM FILES (X86)\MICROSOFT VISUAL STUDIO\2019\PROFESSIONAL\VC\TOOLS\MSVC\14.29.30133\INCLUDE\CMATH
C:\PROGRAM FILES (X86)\MICROSOFT VISUAL STUDIO\2019\PROFESSIONAL\VC\TOOLS\MSVC\14.29.30133\INCLUDE\YVALS.H
C:\PROGRAM FILES (X86)\WINDOWS KITS\10\INCLUDE\10.0.19041.0\UCRT\CRTDBG.H
C:\PROGRAM FILES (X86)\MICROSOFT VISUAL STUDIO\2019\PROFESSIONAL\VC\TOOLS\MSVC\14.29.30133\INCLUDE\VCRUNTIME_NEW_DEBUG.H
C:\PROGRAM FILES (X86)\MICROSOFT VISUAL STUDIO\2019\PROFESSIONAL\VC\TOOLS\MSVC\14.29.30133\INCLUDE\VCRUNTIME_NEW.H
C:\PROGRAM FILES (X86)\MICROSOFT VISUAL STUDIO\2019\PROFESSIONAL\VC\TOOLS\MSVC\14.29.30133\INCLUDE\CRTDEFS.H
C:\PROGRAM FILES (X86)\MICROSOFT VISUAL STUDIO\2019\PROFESSIONAL\VC\TOOLS\MSVC\14.29.30133\INCLUDE\USE_ANSI.H
C:\PROGRAM FILES (X86)\MICROSOFT VISUAL STUDIO\2019\PROFESSIONAL\VC\TOOLS\MSVC\14.29.30133\INCLUDE\CSTDLIB
C:\PROGRAM FILES (X86)\MICROSOFT VISUAL STUDIO\2019\PROFESSIONAL\VC\TOOLS\MSVC\14.29.30133\INCLUDE\XTR1COMMON
C:\PROGRAM FILES (X86)\MICROSOFT VISUAL STUDIO\2019\PROFESSIONAL\VC\TOOLS\MSVC\14.29.30133\INCLUDE\INTRIN0.H
C:\PROGRAM FILES (X86)\MICROSOFT VISUAL STUDIO\2019\PROFESSIONAL\VC\TOOLS\MSVC\14.29.30133\INCLUDE\INTRIN0.INL.H
C:\PROGRAM FILES (X86)\MICROSOFT VISUAL STUDIO\2019\PROFESSIONAL\VC\TOOLS\MSVC\14.29.30133\INCLUDE\CSTDIO
C:\PROGRAM FILES (X86)\MICROSOFT VISUAL STUDIO\2019\PROFESSIONAL\VC\TOOLS\MSVC\14.29.30133\INCLUDE\ITERATOR
C:\PROGRAM FILES (X86)\MICROSOFT VISUAL STUDIO\2019\PROFESSIONAL\VC\TOOLS\MSVC\14.29.30133\INCLUDE\IOSFWD
C:\PROGRAM FILES (X86)\MICROSOFT VISUAL STUDIO\2019\PROFESSIONAL\VC\TOOLS\MSVC\14.29.30133\INCLUDE\CSTRING
C:\PROGRAM FILES (X86)\MICROSOFT VISUAL STUDIO\2019\PROFESSIONAL\VC\TOOLS\MSVC\14.29.30133\INCLUDE\CWCHAR
C:\PROGRAM FILES (X86)\WINDOWS KITS\10\INCLUDE\10.0.19041.0\UCRT\WCHAR.H
C:\PROGRAM FILES (X86)\WINDOWS KITS\10\INCLUDE\10.0.19041.0\UCRT\CORECRT_WCONIO.H
C:\PROGRAM FILES (X86)\WINDOWS KITS\10\INCLUDE\10.0.19041.0\UCRT\CORECRT_WCTYPE.H
C:\PROGRAM FILES (X86)\WINDOWS KITS\10\INCLUDE\10.0.19041.0\UCRT\CORECRT_WDIRECT.H
C:\PROGRAM FILES (X86)\WINDOWS KITS\10\INCLUDE\10.0.19041.0\UCRT\CORECRT_WIO.H
C:\PROGRAM FILES (X86)\WINDOWS KITS\10\INCLUDE\10.0.19041.0\UCRT\CORECRT_SHARE.H
C:\PROGRAM FILES (X86)\WINDOWS KITS\10\INCLUDE\10.0.19041.0\UCRT\CORECRT_WPROCESS.H
C:\PROGRAM FILES (X86)\WINDOWS KITS\10\INCLUDE\10.0.19041.0\UCRT\SYS\STAT.H
C:\PROGRAM FILES (X86)\WINDOWS KITS\10\INCLUDE\10.0.19041.0\UCRT\SYS\TYPES.H
C:\PROGRAM FILES (X86)\MICROSOFT VISUAL STUDIO\2019\PROFESSIONAL\VC\TOOLS\MSVC\14.29.30133\INCLUDE\XSTDDEF
C:\PROGRAM FILES (X86)\MICROSOFT VISUAL STUDIO\2019\PROFESSIONAL\VC\TOOLS\MSVC\14.29.30133\INCLUDE\CSTDDEF
C:\PROGRAM FILES (X86)\MICROSOFT VISUAL STUDIO\2019\PROFESSIONAL\VC\TOOLS\MSVC\14.29.30133\INCLUDE\INITIALIZER_LIST
C:\PROGRAM FILES (X86)\MICROSOFT VISUAL STUDIO\2019\PROFESSIONAL\VC\TOOLS\MSVC\14.29.30133\INCLUDE\XUTILITY
C:\PROGRAM FILES (X86)\MICROSOFT VISUAL STUDIO\2019\PROFESSIONAL\VC\TOOLS\MSVC\14.29.30133\INCLUDE\UTILITY
C:\PROGRAM FILES (X86)\MICROSOFT VISUAL STUDIO\2019\PROFESSIONAL\VC\TOOLS\MSVC\14.29.30133\INCLUDE\TYPE_TRAITS
C:\PROGRAM FILES (X86)\MICROSOFT VISUAL STUDIO\2019\PROFESSIONAL\VC\TOOLS\MSVC\14.29.30133\INCLUDE\CSTDINT
C:\PROGRAM FILES (X86)\MICROSOFT VISUAL STUDIO\2019\PROFESSIONAL\VC\TOOLS\MSVC\14.29.30133\INCLUDE\STREAMBUF
C:\PROGRAM FILES (X86)\MICROSOFT VISUAL STUDIO\2019\PROFESSIONAL\VC\TOOLS\MSVC\14.29.30133\INCLUDE\XIOSBASE
C:\PROGRAM FILES (X86)\WINDOWS KITS\10\INCLUDE\10.0.19041.0\UCRT\SHARE.H
C:\PROGRAM FILES (X86)\MICROSOFT VISUAL STUDIO\2019\PROFESSIONAL\VC\TOOLS\MSVC\14.29.30133\INCLUDE\SYSTEM_ERROR
C:\PROGRAM FILES (X86)\MICROSOFT VISUAL STUDIO\2019\PROFESSIONAL\VC\TOOLS\MSVC\14.29.30133\INCLUDE\__MSVC_SYSTEM_ERROR_ABI.HPP
C:\PROGRAM FILES (X86)\MICROSOFT VISUAL STUDIO\2019\PROFESSIONAL\VC\TOOLS\MSVC\14.29.30133\INCLUDE\CERRNO
C:\PROGRAM FILES (X86)\MICROSOFT VISUAL STUDIO\2019\PROFESSIONAL\VC\TOOLS\MSVC\14.29.30133\INCLUDE\STDEXCEPT
C:\PROGRAM FILES (X86)\MICROSOFT VISUAL STUDIO\2019\PROFESSIONAL\VC\TOOLS\MSVC\14.29.30133\INCLUDE\EXCEPTION
C:\PROGRAM FILES (X86)\WINDOWS KITS\10\INCLUDE\10.0.19041.0\UCRT\MALLOC.H
C:\PROGRAM FILES (X86)\MICROSOFT VISUAL STUDIO\2019\PROFESSIONAL\VC\TOOLS\MSVC\14.29.30133\INCLUDE\VCRUNTIME_EXCEPTION.H
C:\PROGRAM FILES (X86)\MICROSOFT VISUAL STUDIO\2019\PROFESSIONAL\VC\TOOLS\MSVC\14.29.30133\INCLUDE\EH.H
C:\PROGRAM FILES (X86)\WINDOWS KITS\10\INCLUDE\10.0.19041.0\UCRT\CORECRT_TERMINATE.H
C:\PROGRAM FILES (X86)\MICROSOFT VISUAL STUDIO\2019\PROFESSIONAL\VC\TOOLS\MSVC\14.29.30133\INCLUDE\XSTRING
C:\PROGRAM FILES (X86)\MICROSOFT VISUAL STUDIO\2019\PROFESSIONAL\VC\TOOLS\MSVC\14.29.30133\INCLUDE\XMEMORY
C:\PROGRAM FILES (X86)\MICROSOFT VISUAL STUDIO\2019\PROFESSIONAL\VC\TOOLS\MSVC\14.29.30133\INCLUDE\LIMITS
C:\PROGRAM FILES (X86)\MICROSOFT VISUAL STUDIO\2019\PROFESSIONAL\VC\TOOLS\MSVC\14.29.30133\INCLUDE\CFLOAT
C:\PROGRAM FILES (X86)\MICROSOFT VISUAL STUDIO\2019\PROFESSIONAL\VC\TOOLS\MSVC\14.29.30133\INCLUDE\ISA_AVAILABILITY.H
C:\PROGRAM FILES (X86)\MICROSOFT VISUAL STUDIO\2019\PROFESSIONAL\VC\TOOLS\MSVC\14.29.30133\INCLUDE\NEW
C:\PROGRAM FILES (X86)\MICROSOFT VISUAL STUDIO\2019\PROFESSIONAL\VC\TOOLS\MSVC\14.29.30133\INCLUDE\XATOMIC.H
C:\PROGRAM FILES (X86)\MICROSOFT VISUAL STUDIO\2019\PROFESSIONAL\VC\TOOLS\MSVC\14.29.30133\INCLUDE\XCALL_ONCE.H
C:\PROGRAM FILES (X86)\MICROSOFT VISUAL STUDIO\2019\PROFESSIONAL\VC\TOOLS\MSVC\14.29.30133\INCLUDE\XERRC.H
C:\PROGRAM FILES (X86)\MICROSOFT VISUAL STUDIO\2019\PROFESSIONAL\VC\TOOLS\MSVC\14.29.30133\INCLUDE\ATOMIC
C:\PROGRAM FILES (X86)\MICROSOFT VISUAL STUDIO\2019\PROFESSIONAL\VC\TOOLS\MSVC\14.29.30133\INCLUDE\XTHREADS.H
C:\PROGRAM FILES (X86)\MICROSOFT VISUAL STUDIO\2019\PROFESSIONAL\VC\TOOLS\MSVC\14.29.30133\INCLUDE\XTIMEC.H
C:\PROGRAM FILES (X86)\MICROSOFT VISUAL STUDIO\2019\PROFESSIONAL\VC\TOOLS\MSVC\14.29.30133\INCLUDE\CTIME
C:\PROGRAM FILES (X86)\MICROSOFT VISUAL STUDIO\2019\PROFESSIONAL\VC\TOOLS\MSVC\14.29.30133\INCLUDE\XLOCALE
C:\PROGRAM FILES (X86)\MICROSOFT VISUAL STUDIO\2019\PROFESSIONAL\VC\TOOLS\MSVC\14.29.30133\INCLUDE\MEMORY
C:\PROGRAM FILES (X86)\MICROSOFT VISUAL STUDIO\2019\PROFESSIONAL\VC\TOOLS\MSVC\14.29.30133\INCLUDE\TYPEINFO
C:\PROGRAM FILES (X86)\MICROSOFT VISUAL STUDIO\2019\PROFESSIONAL\VC\TOOLS\MSVC\14.29.30133\INCLUDE\VCRUNTIME_TYPEINFO.H
C:\PROGRAM FILES (X86)\MICROSOFT VISUAL STUDIO\2019\PROFESSIONAL\VC\TOOLS\MSVC\14.29.30133\INCLUDE\XFACET
C:\PROGRAM FILES (X86)\MICROSOFT VISUAL STUDIO\2019\PROFESSIONAL\VC\TOOLS\MSVC\14.29.30133\INCLUDE\XLOCINFO
C:\PROGRAM FILES (X86)\MICROSOFT VISUAL STUDIO\2019\PROFESSIONAL\VC\TOOLS\MSVC\14.29.30133\INCLUDE\XLOCINFO.H
C:\PROGRAM FILES (X86)\MICROSOFT VISUAL STUDIO\2019\PROFESSIONAL\VC\TOOLS\MSVC\14.29.30133\INCLUDE\CCTYPE
C:\PROGRAM FILES (X86)\WINDOWS KITS\10\INCLUDE\10.0.19041.0\UCRT\CTYPE.H
C:\PROGRAM FILES (X86)\MICROSOFT VISUAL STUDIO\2019\PROFESSIONAL\VC\TOOLS\MSVC\14.29.30133\INCLUDE\CLOCALE
C:\PROGRAM FILES (X86)\WINDOWS KITS\10\INCLUDE\10.0.19041.0\UCRT\LOCALE.H
C:\PROGRAM FILES (X86)\WINDOWS KITS\10\INCLUDE\10.0.19041.0\UM\WINDOWS.H
C:\PROGRAM FILES (X86)\WINDOWS KITS\10\INCLUDE\10.0.19041.0\SHARED\WINAPIFAMILY.H
C:\PROGRAM FILES (X86)\WINDOWS KITS\10\INCLUDE\10.0.19041.0\SHARED\WINPACKAGEFAMILY.H
C:\PROGRAM FILES (X86)\WINDOWS KITS\10\INCLUDE\10.0.19041.0\SHARED\SDKDDKVER.H
C:\PROGRAM FILES (X86)\MICROSOFT VISUAL STUDIO\2019\PROFESSIONAL\VC\TOOLS\MSVC\14.29.30133\INCLUDE\EXCPT.H
C:\PROGRAM FILES (X86)\MICROSOFT VISUAL STUDIO\2019\PROFESSIONAL\VC\TOOLS\MSVC\14.29.30133\INCLUDE\STDARG.H
C:\PROGRAM FILES (X86)\WINDOWS KITS\10\INCLUDE\10.0.19041.0\SHARED\WINDEF.H
C:\PROGRAM FILES (X86)\WINDOWS KITS\10\INCLUDE\10.0.19041.0\SHARED\MINWINDEF.H
C:\PROGRAM FILES (X86)\WINDOWS KITS\10\INCLUDE\10.0.19041.0\SHARED\SPECSTRINGS.H
C:\PROGRAM FILES (X86)\WINDOWS KITS\10\INCLUDE\10.0.19041.0\SHARED\SPECSTRINGS_STRICT.H
C:\PROGRAM FILES (X86)\WINDOWS KITS\10\INCLUDE\10.0.19041.0\SHARED\SPECSTRINGS_UNDEF.H
C:\PROGRAM FILES (X86)\WINDOWS KITS\10\INCLUDE\10.0.19041.0\SHARED\DRIVERSPECS.H
C:\PROGRAM FILES (X86)\WINDOWS KITS\10\INCLUDE\10.0.19041.0\SHARED\SDV_DRIVERSPECS.H
C:\PROGRAM FILES (X86)\WINDOWS KITS\10\INCLUDE\10.0.19041.0\UM\WINNT.H
C:\PROGRAM FILES (X86)\WINDOWS KITS\10\INCLUDE\10.0.19041.0\SHARED\KERNELSPECS.H
C:\PROGRAM FILES (X86)\WINDOWS KITS\10\INCLUDE\10.0.19041.0\SHARED\BASETSD.H
C:\PROGRAM FILES (X86)\WINDOWS KITS\10\INCLUDE\10.0.19041.0\SHARED\GUIDDEF.H
C:\PROGRAM FILES (X86)\WINDOWS KITS\10\INCLUDE\10.0.19041.0\SHARED\PSHPACK4.H
C:\PROGRAM FILES (X86)\WINDOWS KITS\10\INCLUDE\10.0.19041.0\SHARED\POPPACK.H
C:\PROGRAM FILES (X86)\WINDOWS KITS\10\INCLUDE\10.0.19041.0\SHARED\PSHPACK2.H
C:\PROGRAM FILES (X86)\WINDOWS KITS\10\INCLUDE\10.0.19041.0\SHARED\PSHPACK8.H
C:\PROGRAM FILES (X86)\WINDOWS KITS\10\INCLUDE\10.0.19041.0\SHARED\PSHPACK1.H
C:\PROGRAM FILES (X86)\WINDOWS KITS\10\INCLUDE\10.0.19041.0\SHARED\APISET.H
C:\PROGRAM FILES (X86)\WINDOWS KITS\10\INCLUDE\10.0.19041.0\SHARED\KTMTYPES.H
C:\PROGRAM FILES (X86)\WINDOWS KITS\10\INCLUDE\10.0.19041.0\UM\WINBASE.H
C:\PROGRAM FILES (X86)\WINDOWS KITS\10\INCLUDE\10.0.19041.0\SHARED\APISETCCONV.H
C:\PROGRAM FILES (X86)\WINDOWS KITS\10\INCLUDE\10.0.19041.0\UM\MINWINBASE.H
C:\PROGRAM FILES (X86)\WINDOWS KITS\10\INCLUDE\10.0.19041.0\UM\APIQUERY2.H
C:\PROGRAM FILES (X86)\WINDOWS KITS\10\INCLUDE\10.0.19041.0\UM\PROCESSENV.H
C:\PROGRAM FILES (X86)\WINDOWS KITS\10\INCLUDE\10.0.19041.0\UM\FILEAPIFROMAPP.H
C:\PROGRAM FILES (X86)\WINDOWS KITS\10\INCLUDE\10.0.19041.0\UM\FILEAPI.H
C:\PROGRAM FILES (X86)\WINDOWS KITS\10\INCLUDE\10.0.19041.0\UM\DEBUGAPI.H
C:\PROGRAM FILES (X86)\WINDOWS KITS\10\INCLUDE\10.0.19041.0\UM\UTILAPISET.H
C:\PROGRAM FILES (X86)\WINDOWS KITS\10\INCLUDE\10.0.19041.0\UM\HANDLEAPI.H
C:\PROGRAM FILES (X86)\WINDOWS KITS\10\INCLUDE\10.0.19041.0\UM\ERRHANDLINGAPI.H
C:\PROGRAM FILES (X86)\WINDOWS KITS\10\INCLUDE\10.0.19041.0\UM\FIBERSAPI.H
C:\PROGRAM FILES (X86)\WINDOWS KITS\10\INCLUDE\10.0.19041.0\UM\NAMEDPIPEAPI.H
C:\PROGRAM FILES (X86)\WINDOWS KITS\10\INCLUDE\10.0.19041.0\UM\PROFILEAPI.H
C:\PROGRAM FILES (X86)\WINDOWS KITS\10\INCLUDE\10.0.19041.0\UM\HEAPAPI.H
C:\PROGRAM FILES (X86)\WINDOWS KITS\10\INCLUDE\10.0.19041.0\UM\IOAPISET.H
C:\PROGRAM FILES (X86)\WINDOWS KITS\10\INCLUDE\10.0.19041.0\UM\SYNCHAPI.H
C:\PROGRAM FILES (X86)\WINDOWS KITS\10\INCLUDE\10.0.19041.0\UM\INTERLOCKEDAPI.H
C:\PROGRAM FILES (X86)\WINDOWS KITS\10\INCLUDE\10.0.19041.0\UM\PROCESSTHREADSAPI.H
C:\PROGRAM FILES (X86)\WINDOWS KITS\10\INCLUDE\10.0.19041.0\UM\SYSINFOAPI.H
C:\PROGRAM FILES (X86)\WINDOWS KITS\10\INCLUDE\10.0.19041.0\UM\MEMORYAPI.H
C:\PROGRAM FILES (X86)\WINDOWS KITS\10\INCLUDE\10.0.19041.0\UM\ENCLAVEAPI.H
C:\PROGRAM FILES (X86)\WINDOWS KITS\10\INCLUDE\10.0.19041.0\UM\THREADPOOLLEGACYAPISET.H
C:\PROGRAM FILES (X86)\WINDOWS KITS\10\INCLUDE\10.0.19041.0\UM\THREADPOOLAPISET.H
C:\PROGRAM FILES (X86)\WINDOWS KITS\10\INCLUDE\10.0.19041.0\UM\JOBAPI.H
C:\PROGRAM FILES (X86)\WINDOWS KITS\10\INCLUDE\10.0.19041.0\UM\JOBAPI2.H
C:\PROGRAM FILES (X86)\WINDOWS KITS\10\INCLUDE\10.0.19041.0\UM\WOW64APISET.H
C:\PROGRAM FILES (X86)\WINDOWS KITS\10\INCLUDE\10.0.19041.0\UM\LIBLOADERAPI.H
C:\PROGRAM FILES (X86)\WINDOWS KITS\10\INCLUDE\10.0.19041.0\UM\SECURITYBASEAPI.H
C:\PROGRAM FILES (X86)\WINDOWS KITS\10\INCLUDE\10.0.19041.0\UM\NAMESPACEAPI.H
C:\PROGRAM FILES (X86)\WINDOWS KITS\10\INCLUDE\10.0.19041.0\UM\SYSTEMTOPOLOGYAPI.H
C:\PROGRAM FILES (X86)\WINDOWS KITS\10\INCLUDE\10.0.19041.0\UM\PROCESSTOPOLOGYAPI.H
C:\PROGRAM FILES (X86)\WINDOWS KITS\10\INCLUDE\10.0.19041.0\UM\SECURITYAPPCONTAINER.H
C:\PROGRAM FILES (X86)\WINDOWS KITS\10\INCLUDE\10.0.19041.0\UM\REALTIMEAPISET.H
C:\PROGRAM FILES (X86)\WINDOWS KITS\10\INCLUDE\10.0.19041.0\SHARED\WINERROR.H
C:\PROGRAM FILES (X86)\WINDOWS KITS\10\INCLUDE\10.0.19041.0\UM\TIMEZONEAPI.H
C:\PROGRAM FILES (X86)\WINDOWS KITS\10\INCLUDE\10.0.19041.0\UM\WINGDI.H
C:\PROGRAM FILES (X86)\WINDOWS KITS\10\INCLUDE\10.0.19041.0\UM\WINUSER.H
C:\PROGRAM FILES (X86)\WINDOWS KITS\10\INCLUDE\10.0.19041.0\SHARED\TVOUT.H
C:\PROGRAM FILES (X86)\WINDOWS KITS\10\INCLUDE\10.0.19041.0\UM\WINNLS.H
C:\PROGRAM FILES (X86)\WINDOWS KITS\10\INCLUDE\10.0.19041.0\UM\DATETIMEAPI.H
C:\PROGRAM FILES (X86)\WINDOWS KITS\10\INCLUDE\10.0.19041.0\UM\STRINGAPISET.H
C:\PROGRAM FILES (X86)\WINDOWS KITS\10\INCLUDE\10.0.19041.0\UM\WINCON.H
C:\PROGRAM FILES (X86)\WINDOWS KITS\10\INCLUDE\10.0.19041.0\UM\WINCONTYPES.H
C:\PROGRAM FILES (X86)\WINDOWS KITS\10\INCLUDE\10.0.19041.0\UM\CONSOLEAPI.H
C:\PROGRAM FILES (X86)\WINDOWS KITS\10\INCLUDE\10.0.19041.0\UM\CONSOLEAPI2.H
C:\PROGRAM FILES (X86)\WINDOWS KITS\10\INCLUDE\10.0.19041.0\UM\CONSOLEAPI3.H
C:\PROGRAM FILES (X86)\WINDOWS KITS\10\INCLUDE\10.0.19041.0\UM\WINVER.H
C:\PROGRAM FILES (X86)\WINDOWS KITS\10\INCLUDE\10.0.19041.0\UM\VERRSRC.H
C:\PROGRAM FILES (X86)\WINDOWS KITS\10\INCLUDE\10.0.19041.0\UM\WINREG.H
C:\PROGRAM FILES (X86)\WINDOWS KITS\10\INCLUDE\10.0.19041.0\UM\REASON.H
C:\PROGRAM FILES (X86)\WINDOWS KITS\10\INCLUDE\10.0.19041.0\UM\WINNETWK.H
C:\PROGRAM FILES (X86)\WINDOWS KITS\10\INCLUDE\10.0.19041.0\SHARED\WNNC.H
C:\PROGRAM FILES (X86)\WINDOWS KITS\10\INCLUDE\10.0.19041.0\SHARED\CDERR.H
C:\PROGRAM FILES (X86)\WINDOWS KITS\10\INCLUDE\10.0.19041.0\UM\DDE.H
C:\PROGRAM FILES (X86)\WINDOWS KITS\10\INCLUDE\10.0.19041.0\UM\DDEML.H
C:\PROGRAM FILES (X86)\WINDOWS KITS\10\INCLUDE\10.0.19041.0\UM\DLGS.H
C:\PROGRAM FILES (X86)\WINDOWS KITS\10\INCLUDE\10.0.19041.0\UM\LZEXPAND.H
C:\PROGRAM FILES (X86)\WINDOWS KITS\10\INCLUDE\10.0.19041.0\UM\MMSYSTEM.H
C:\PROGRAM FILES (X86)\WINDOWS KITS\10\INCLUDE\10.0.19041.0\UM\MMSYSCOM.H
C:\PROGRAM FILES (X86)\WINDOWS KITS\10\INCLUDE\10.0.19041.0\UM\MCIAPI.H
C:\PROGRAM FILES (X86)\WINDOWS KITS\10\INCLUDE\10.0.19041.0\UM\MMISCAPI.H
C:\PROGRAM FILES (X86)\WINDOWS KITS\10\INCLUDE\10.0.19041.0\UM\MMISCAPI2.H
C:\PROGRAM FILES (X86)\WINDOWS KITS\10\INCLUDE\10.0.19041.0\UM\PLAYSOUNDAPI.H
C:\PROGRAM FILES (X86)\WINDOWS KITS\10\INCLUDE\10.0.19041.0\UM\MMEAPI.H
C:\PROGRAM FILES (X86)\WINDOWS KITS\10\INCLUDE\10.0.19041.0\UM\TIMEAPI.H
C:\PROGRAM FILES (X86)\WINDOWS KITS\10\INCLUDE\10.0.19041.0\UM\JOYSTICKAPI.H
C:\PROGRAM FILES (X86)\WINDOWS KITS\10\INCLUDE\10.0.19041.0\UM\NB30.H
C:\PROGRAM FILES (X86)\WINDOWS KITS\10\INCLUDE\10.0.19041.0\SHARED\RPC.H
C:\PROGRAM FILES (X86)\WINDOWS KITS\10\INCLUDE\10.0.19041.0\SHARED\RPCDCE.H
C:\PROGRAM FILES (X86)\WINDOWS KITS\10\INCLUDE\10.0.19041.0\SHARED\RPCDCEP.H
C:\PROGRAM FILES (X86)\WINDOWS KITS\10\INCLUDE\10.0.19041.0\UM\RPCNSI.H
C:\PROGRAM FILES (X86)\WINDOWS KITS\10\INCLUDE\10.0.19041.0\SHARED\RPCNTERR.H
C:\PROGRAM FILES (X86)\WINDOWS KITS\10\INCLUDE\10.0.19041.0\SHARED\RPCASYNC.H
C:\PROGRAM FILES (X86)\WINDOWS KITS\10\INCLUDE\10.0.19041.0\UM\SHELLAPI.H
C:\PROGRAM FILES (X86)\WINDOWS KITS\10\INCLUDE\10.0.19041.0\UM\WINPERF.H
C:\PROGRAM FILES (X86)\WINDOWS KITS\10\INCLUDE\10.0.19041.0\UM\WINSOCK.H
C:\PROGRAM FILES (X86)\WINDOWS KITS\10\INCLUDE\10.0.19041.0\UM\WINCRYPT.H
C:\PROGRAM FILES (X86)\WINDOWS KITS\10\INCLUDE\10.0.19041.0\SHARED\BCRYPT.H
C:\PROGRAM FILES (X86)\WINDOWS KITS\10\INCLUDE\10.0.19041.0\UM\NCRYPT.H
C:\PROGRAM FILES (X86)\WINDOWS KITS\10\INCLUDE\10.0.19041.0\UM\DPAPI.H
C:\PROGRAM FILES (X86)\WINDOWS KITS\10\INCLUDE\10.0.19041.0\UM\WINEFS.H
C:\PROGRAM FILES (X86)\WINDOWS KITS\10\INCLUDE\10.0.19041.0\UM\WINSCARD.H
C:\PROGRAM FILES (X86)\WINDOWS KITS\10\INCLUDE\10.0.19041.0\SHARED\WTYPES.H
C:\PROGRAM FILES (X86)\WINDOWS KITS\10\INCLUDE\10.0.19041.0\SHARED\RPCNDR.H
C:\PROGRAM FILES (X86)\WINDOWS KITS\10\INCLUDE\10.0.19041.0\UM\RPCNSIP.H
C:\PROGRAM FILES (X86)\WINDOWS KITS\10\INCLUDE\10.0.19041.0\SHARED\RPCSAL.H
C:\PROGRAM FILES (X86)\WINDOWS KITS\10\INCLUDE\10.0.19041.0\SHARED\WTYPESBASE.H
C:\PROGRAM FILES (X86)\WINDOWS KITS\10\INCLUDE\10.0.19041.0\UM\WINIOCTL.H
C:\PROGRAM FILES (X86)\WINDOWS KITS\10\INCLUDE\10.0.19041.0\SHARED\WINSMCRD.H
C:\PROGRAM FILES (X86)\WINDOWS KITS\10\INCLUDE\10.0.19041.0\UM\WINSPOOL.H
C:\PROGRAM FILES (X86)\WINDOWS KITS\10\INCLUDE\10.0.19041.0\UM\PRSHT.H
C:\PROGRAM FILES (X86)\WINDOWS KITS\10\INCLUDE\10.0.19041.0\UM\OLE2.H
C:\PROGRAM FILES (X86)\WINDOWS KITS\10\INCLUDE\10.0.19041.0\UM\OBJBASE.H
C:\PROGRAM FILES (X86)\WINDOWS KITS\10\INCLUDE\10.0.19041.0\UM\COMBASEAPI.H
C:\PROGRAM FILES (X86)\WINDOWS KITS\10\INCLUDE\10.0.19041.0\UM\UNKNWNBASE.H
C:\PROGRAM FILES (X86)\WINDOWS KITS\10\INCLUDE\10.0.19041.0\UM\OBJIDLBASE.H
C:\PROGRAM FILES (X86)\WINDOWS KITS\10\INCLUDE\10.0.19041.0\UM\CGUID.H
C:\PROGRAM FILES (X86)\WINDOWS KITS\10\INCLUDE\10.0.19041.0\UM\COML2API.H
C:\PROGRAM FILES (X86)\WINDOWS KITS\10\INCLUDE\10.0.19041.0\UM\OBJIDL.H
C:\PROGRAM FILES (X86)\WINDOWS KITS\10\INCLUDE\10.0.19041.0\UM\UNKNWN.H
C:\PROGRAM FILES (X86)\WINDOWS KITS\10\INCLUDE\10.0.19041.0\UM\PROPIDLBASE.H
C:\PROGRAM FILES (X86)\WINDOWS KITS\10\INCLUDE\10.0.19041.0\UM\OAIDL.H
C:\PROGRAM FILES (X86)\WINDOWS KITS\10\INCLUDE\10.0.19041.0\UM\URLMON.H
C:\PROGRAM FILES (X86)\WINDOWS KITS\10\INCLUDE\10.0.19041.0\UM\OLEIDL.H
C:\PROGRAM FILES (X86)\WINDOWS KITS\10\INCLUDE\10.0.19041.0\UM\SERVPROV.H
C:\PROGRAM FILES (X86)\WINDOWS KITS\10\INCLUDE\10.0.19041.0\UM\MSXML.H
C:\PROGRAM FILES (X86)\WINDOWS KITS\10\INCLUDE\10.0.19041.0\UM\PROPIDL.H
C:\PROGRAM FILES (X86)\WINDOWS KITS\10\INCLUDE\10.0.19041.0\UM\OLEAUTO.H
C:\PROGRAM FILES (X86)\WINDOWS KITS\10\INCLUDE\10.0.19041.0\UM\COMMDLG.H
C:\PROGRAM FILES (X86)\WINDOWS KITS\10\INCLUDE\10.0.19041.0\SHARED\STRALIGN.H
C:\PROGRAM FILES (X86)\WINDOWS KITS\10\INCLUDE\10.0.19041.0\UM\WINSVC.H
C:\PROGRAM FILES (X86)\WINDOWS KITS\10\INCLUDE\10.0.19041.0\UM\MCX.H
C:\PROGRAM FILES (X86)\WINDOWS KITS\10\INCLUDE\10.0.19041.0\UM\IMM.H
C:\PROGRAM FILES (X86)\WINDOWS KITS\10\INCLUDE\10.0.19041.0\UM\IME_CMODES.H
C:\PROGRAM FILES\MVTEC\HALCON-20.11-STEADY\INCLUDE\HALCONCPP\HALCONCPPFORWARDS.H
C:\PROGRAM FILES\MVTEC\HALCON-20.11-STEADY\INCLUDE\HALCONCPP\HTUPLE.H
C:\PROGRAM FILES\MVTEC\HALCON-20.11-STEADY\INCLUDE\HALCONCPP\HTUPLEELEMENT.H
C:\PROGRAM FILES\MVTEC\HALCON-20.11-STEADY\INCLUDE\HALCONCPP\HSTRING.H
C:\PROGRAM FILES\MVTEC\HALCON-20.11-STEADY\INCLUDE\HALCONCPP\HSMARTPTR.H
C:\PROGRAM FILES\MVTEC\HALCON-20.11-STEADY\INCLUDE\HALCONCPP\HHANDLEBASE.H
C:\PROGRAM FILES\MVTEC\HALCON-20.11-STEADY\INCLUDE\HALCONCPP\HHANDLE.H
C:\PROGRAM FILES\MVTEC\HALCON-20.11-STEADY\INCLUDE\HALCONCPP\HVECTOR.H
C:\PROGRAM FILES\MVTEC\HALCON-20.11-STEADY\INCLUDE\HALCONCPP\HOBJECTBASE.H
C:\PROGRAM FILES\MVTEC\HALCON-20.11-STEADY\INCLUDE\HALCONCPP\HOBJECT.H
C:\PROGRAM FILES\MVTEC\HALCON-20.11-STEADY\INCLUDE\HALCONCPP\HEXCEPTION.H
C:\PROGRAM FILES\MVTEC\HALCON-20.11-STEADY\INCLUDE\HALCONCPP\HDEVWINDOWSTACK.H
C:\PROGRAM FILES\MVTEC\HALCON-20.11-STEADY\INCLUDE\HALCONCPP\HDATABASE.H
C:\PROGRAM FILES\MVTEC\HALCON-20.11-STEADY\INCLUDE\HALCONCPP\HOPERATOROVERLOADS.H
C:\PROGRAM FILES\MVTEC\HALCON-20.11-STEADY\INCLUDE\HALCONCPP\HALCONCPPINCLUDES.H
C:\PROGRAM FILES\MVTEC\HALCON-20.11-STEADY\INCLUDE\HALCONCPP\HOPERATORSET.H
C:\PROGRAM FILES\MVTEC\HALCON-20.11-STEADY\INCLUDE\HALCONCPP\HFEATURESET.H
C:\PROGRAM FILES\MVTEC\HALCON-20.11-STEADY\INCLUDE\HALCONCPP\HTEMPLATE.H
C:\PROGRAM FILES\MVTEC\HALCON-20.11-STEADY\INCLUDE\HALCONCPP\HNCCMODEL.H
C:\PROGRAM FILES\MVTEC\HALCON-20.11-STEADY\INCLUDE\HALCONCPP\HSHAPEMODEL.H
C:\PROGRAM FILES\MVTEC\HALCON-20.11-STEADY\INCLUDE\HALCONCPP\HOBJECTMODEL3D.H
C:\PROGRAM FILES\MVTEC\HALCON-20.11-STEADY\INCLUDE\HALCONCPP\HSURFACEMODEL.H
C:\PROGRAM FILES\MVTEC\HALCON-20.11-STEADY\INCLUDE\HALCONCPP\HSURFACEMATCHINGRESULT.H
C:\PROGRAM FILES\MVTEC\HALCON-20.11-STEADY\INCLUDE\HALCONCPP\HDEFORMABLESURFACEMODEL.H
C:\PROGRAM FILES\MVTEC\HALCON-20.11-STEADY\INCLUDE\HALCONCPP\HDEFORMABLESURFACEMATCHINGRESULT.H
C:\PROGRAM FILES\MVTEC\HALCON-20.11-STEADY\INCLUDE\HALCONCPP\HSHAPEMODEL3D.H
C:\PROGRAM FILES\MVTEC\HALCON-20.11-STEADY\INCLUDE\HALCONCPP\HDEFORMABLEMODEL.H
C:\PROGRAM FILES\MVTEC\HALCON-20.11-STEADY\INCLUDE\HALCONCPP\HDESCRIPTORMODEL.H
C:\PROGRAM FILES\MVTEC\HALCON-20.11-STEADY\INCLUDE\HALCONCPP\HVARIATIONMODEL.H
C:\PROGRAM FILES\MVTEC\HALCON-20.11-STEADY\INCLUDE\HALCONCPP\HCALIBDATA.H
C:\PROGRAM FILES\MVTEC\HALCON-20.11-STEADY\INCLUDE\HALCONCPP\HCAMERASETUPMODEL.H
C:\PROGRAM FILES\MVTEC\HALCON-20.11-STEADY\INCLUDE\HALCONCPP\HSTEREOMODEL.H
C:\PROGRAM FILES\MVTEC\HALCON-20.11-STEADY\INCLUDE\HALCONCPP\HCOMPONENTTRAINING.H
C:\PROGRAM FILES\MVTEC\HALCON-20.11-STEADY\INCLUDE\HALCONCPP\HCOMPONENTMODEL.H
C:\PROGRAM FILES\MVTEC\HALCON-20.11-STEADY\INCLUDE\HALCONCPP\HGNUPLOT.H
C:\PROGRAM FILES\MVTEC\HALCON-20.11-STEADY\INCLUDE\HALCONCPP\HSOCKET.H
C:\PROGRAM FILES\MVTEC\HALCON-20.11-STEADY\INCLUDE\HALCONCPP\HSERIAL.H
C:\PROGRAM FILES\MVTEC\HALCON-20.11-STEADY\INCLUDE\HALCONCPP\HMEASURE.H
C:\PROGRAM FILES\MVTEC\HALCON-20.11-STEADY\INCLUDE\HALCONCPP\HMATRIX.H
C:\PROGRAM FILES\MVTEC\HALCON-20.11-STEADY\INCLUDE\HALCONCPP\HFUNCTION1D.H
C:\PROGRAM FILES\MVTEC\HALCON-20.11-STEADY\INCLUDE\HALCONCPP\HBARCODE.H
C:\PROGRAM FILES\MVTEC\HALCON-20.11-STEADY\INCLUDE\HALCONCPP\HDATACODE2D.H
C:\PROGRAM FILES\MVTEC\HALCON-20.11-STEADY\INCLUDE\HALCONCPP\HMISC.H
C:\PROGRAM FILES\MVTEC\HALCON-20.11-STEADY\INCLUDE\HALCONCPP\HIMAGE.H
C:\PROGRAM FILES\MVTEC\HALCON-20.11-STEADY\INCLUDE\HALCONCPP\HREGION.H
C:\PROGRAM FILES\MVTEC\HALCON-20.11-STEADY\INCLUDE\HALCONCPP\HXLD.H
C:\PROGRAM FILES\MVTEC\HALCON-20.11-STEADY\INCLUDE\HALCONCPP\HXLDCONT.H
C:\PROGRAM FILES\MVTEC\HALCON-20.11-STEADY\INCLUDE\HALCONCPP\HXLDPOLY.H
C:\PROGRAM FILES\MVTEC\HALCON-20.11-STEADY\INCLUDE\HALCONCPP\HXLDPARA.H
C:\PROGRAM FILES\MVTEC\HALCON-20.11-STEADY\INCLUDE\HALCONCPP\HXLDMODPARA.H
C:\PROGRAM FILES\MVTEC\HALCON-20.11-STEADY\INCLUDE\HALCONCPP\HXLDEXTPARA.H
C:\PROGRAM FILES\MVTEC\HALCON-20.11-STEADY\INCLUDE\HALCONCPP\HWINDOW.H
C:\PROGRAM FILES\MVTEC\HALCON-20.11-STEADY\INCLUDE\HALCONCPP\HFILE.H
C:\PROGRAM FILES\MVTEC\HALCON-20.11-STEADY\INCLUDE\HALCONCPP\HFRAMEGRABBER.H
C:\PROGRAM FILES\MVTEC\HALCON-20.11-STEADY\INCLUDE\HALCONCPP\HIODEVICE.H
C:\PROGRAM FILES\MVTEC\HALCON-20.11-STEADY\INCLUDE\HALCONCPP\HIOCHANNEL.H
C:\PROGRAM FILES\MVTEC\HALCON-20.11-STEADY\INCLUDE\HALCONCPP\HOCRBOX.H
C:\PROGRAM FILES\MVTEC\HALCON-20.11-STEADY\INCLUDE\HALCONCPP\HOCRMLP.H
C:\PROGRAM FILES\MVTEC\HALCON-20.11-STEADY\INCLUDE\HALCONCPP\HOCRSVM.H
C:\PROGRAM FILES\MVTEC\HALCON-20.11-STEADY\INCLUDE\HALCONCPP\HLEXICON.H
C:\PROGRAM FILES\MVTEC\HALCON-20.11-STEADY\INCLUDE\HALCONCPP\HOCV.H
C:\PROGRAM FILES\MVTEC\HALCON-20.11-STEADY\INCLUDE\HALCONCPP\HCLASSBOX.H
C:\PROGRAM FILES\MVTEC\HALCON-20.11-STEADY\INCLUDE\HALCONCPP\HCLASSMLP.H
C:\PROGRAM FILES\MVTEC\HALCON-20.11-STEADY\INCLUDE\HALCONCPP\HCLASSSVM.H
C:\PROGRAM FILES\MVTEC\HALCON-20.11-STEADY\INCLUDE\HALCONCPP\HCLASSGMM.H
C:\PROGRAM FILES\MVTEC\HALCON-20.11-STEADY\INCLUDE\HALCONCPP\HDLCLASSIFIER.H
C:\PROGRAM FILES\MVTEC\HALCON-20.11-STEADY\INCLUDE\HALCONCPP\HDLCLASSIFIERRESULT.H
C:\PROGRAM FILES\MVTEC\HALCON-20.11-STEADY\INCLUDE\HALCONCPP\HDLCLASSIFIERTRAINRESULT.H
C:\PROGRAM FILES\MVTEC\HALCON-20.11-STEADY\INCLUDE\HALCONCPP\HDLDEVICE.H
C:\PROGRAM FILES\MVTEC\HALCON-20.11-STEADY\INCLUDE\HALCONCPP\HDLMODEL.H
C:\PROGRAM FILES\MVTEC\HALCON-20.11-STEADY\INCLUDE\HALCONCPP\HDLPRUNE.H
C:\PROGRAM FILES\MVTEC\HALCON-20.11-STEADY\INCLUDE\HALCONCPP\HDLMODELOCR.H
C:\PROGRAM FILES\MVTEC\HALCON-20.11-STEADY\INCLUDE\HALCONCPP\HCOLORTRANSLUT.H
C:\PROGRAM FILES\MVTEC\HALCON-20.11-STEADY\INCLUDE\HALCONCPP\HBGESTI.H
C:\PROGRAM FILES\MVTEC\HALCON-20.11-STEADY\INCLUDE\HALCONCPP\HSYSTEM.H
C:\PROGRAM FILES\MVTEC\HALCON-20.11-STEADY\INCLUDE\HALCONCPP\HINFO.H
C:\PROGRAM FILES\MVTEC\HALCON-20.11-STEADY\INCLUDE\HALCONCPP\HCAMPAR.H
C:\PROGRAM FILES\MVTEC\HALCON-20.11-STEADY\INCLUDE\HALCONCPP\HPOSE.H
C:\PROGRAM FILES\MVTEC\HALCON-20.11-STEADY\INCLUDE\HALCONCPP\HHOMMAT2D.H
C:\PROGRAM FILES\MVTEC\HALCON-20.11-STEADY\INCLUDE\HALCONCPP\HHOMMAT3D.H
C:\PROGRAM FILES\MVTEC\HALCON-20.11-STEADY\INCLUDE\HALCONCPP\HQUATERNION.H
C:\PROGRAM FILES\MVTEC\HALCON-20.11-STEADY\INCLUDE\HALCONCPP\HDUALQUATERNION.H
C:\PROGRAM FILES\MVTEC\HALCON-20.11-STEADY\INCLUDE\HALCONCPP\HSHEETOFLIGHTMODEL.H
C:\PROGRAM FILES\MVTEC\HALCON-20.11-STEADY\INCLUDE\HALCONCPP\HCLASSLUT.H
C:\PROGRAM FILES\MVTEC\HALCON-20.11-STEADY\INCLUDE\HALCONCPP\HCOMPUTEDEVICE.H
C:\PROGRAM FILES\MVTEC\HALCON-20.11-STEADY\INCLUDE\HALCONCPP\HMUTEX.H
C:\PROGRAM FILES\MVTEC\HALCON-20.11-STEADY\INCLUDE\HALCONCPP\HEVENT.H
C:\PROGRAM FILES\MVTEC\HALCON-20.11-STEADY\INCLUDE\HALCONCPP\HCONDITION.H
C:\PROGRAM FILES\MVTEC\HALCON-20.11-STEADY\INCLUDE\HALCONCPP\HBARRIER.H
C:\PROGRAM FILES\MVTEC\HALCON-20.11-STEADY\INCLUDE\HALCONCPP\HMESSAGE.H
C:\PROGRAM FILES\MVTEC\HALCON-20.11-STEADY\INCLUDE\HALCONCPP\HMESSAGEQUEUE.H
C:\PROGRAM FILES\MVTEC\HALCON-20.11-STEADY\INCLUDE\HALCONCPP\HDICT.H
C:\PROGRAM FILES\MVTEC\HALCON-20.11-STEADY\INCLUDE\HALCONCPP\HTEXTMODEL.H
C:\PROGRAM FILES\MVTEC\HALCON-20.11-STEADY\INCLUDE\HALCONCPP\HTEXTRESULT.H
C:\PROGRAM FILES\MVTEC\HALCON-20.11-STEADY\INCLUDE\HALCONCPP\HMETROLOGYMODEL.H
C:\PROGRAM FILES\MVTEC\HALCON-20.11-STEADY\INCLUDE\HALCONCPP\HSERIALIZEDITEM.H
C:\PROGRAM FILES\MVTEC\HALCON-20.11-STEADY\INCLUDE\HALCONCPP\HCLASSKNN.H
C:\PROGRAM FILES\MVTEC\HALCON-20.11-STEADY\INCLUDE\HALCONCPP\HOCRKNN.H
C:\PROGRAM FILES\MVTEC\HALCON-20.11-STEADY\INCLUDE\HALCONCPP\HOCRCNN.H
C:\PROGRAM FILES\MVTEC\HALCON-20.11-STEADY\INCLUDE\HALCONCPP\HCLASSTRAINDATA.H
C:\PROGRAM FILES\MVTEC\HALCON-20.11-STEADY\INCLUDE\HALCONCPP\HSCATTEREDDATAINTERPOLATOR.H
C:\PROGRAM FILES\MVTEC\HALCON-20.11-STEADY\INCLUDE\HALCONCPP\HSAMPLEIDENTIFIER.H
C:\PROGRAM FILES\MVTEC\HALCON-20.11-STEADY\INCLUDE\HALCONCPP\HXLDDISTTRANS.H
C:\PROGRAM FILES\MVTEC\HALCON-20.11-STEADY\INCLUDE\HALCONCPP\HDRAWINGOBJECT.H
C:\PROGRAM FILES\MVTEC\HALCON-20.11-STEADY\INCLUDE\HALCONCPP\HSCENE3D.H
C:\PROGRAM FILES\MVTEC\HALCON-20.11-STEADY\INCLUDE\HALCONCPP\HBEADINSPECTIONMODEL.H
C:\PROGRAM FILES\MVTEC\HALCON-20.11-STEADY\INCLUDE\HALCONCPP\HTEXTUREINSPECTIONMODEL.H
C:\PROGRAM FILES\MVTEC\HALCON-20.11-STEADY\INCLUDE\HALCONCPP\HTEXTUREINSPECTIONRESULT.H
C:\PROGRAM FILES\MVTEC\HALCON-20.11-STEADY\INCLUDE\HALCONCPP\HSTRUCTUREDLIGHTMODEL.H
C:\PROGRAM FILES\MVTEC\HALCON-20.11-STEADY\INCLUDE\HALCONCPP\HIOSTREAM.H
C:\USERS\R_SHIMIZU\DOCUMENTS\PROJ\OPTICALFLOW\OPTICALFLOW_TIME\OPTICALFLOW_TIME\COMMON.H
C:\PROGRAM FILES (X86)\MICROSOFT VISUAL STUDIO\2019\PROFESSIONAL\VC\TOOLS\MSVC\14.29.30133\INCLUDE\FSTREAM
C:\PROGRAM FILES (X86)\MICROSOFT VISUAL STUDIO\2019\PROFESSIONAL\VC\TOOLS\MSVC\14.29.30133\INCLUDE\STRING
C:\PROGRAM FILES (X86)\MICROSOFT VISUAL STUDIO\2019\PROFESSIONAL\VC\TOOLS\MSVC\14.29.30133\INCLUDE\VECTOR
C:\PROGRAM FILES (X86)\MICROSOFT VISUAL STUDIO\2019\PROFESSIONAL\VC\TOOLS\MSVC\14.29.30133\INCLUDE\ALGORITHM
