^C:\USERS\R_SHIMIZU\DOCUMENTS\PROJ\OPTICALFLOW_TIME\OPTICALFLOW_TIME\X64\RELEASE\CV_OPTFLOW.OBJ|C:\USERS\R_SHIMIZU\DOCUMENTS\PROJ\OPTICALFLOW_TIME\OPTICALFLOW_TIME\X64\RELEASE\HALCON_OPTFLOW.OBJ|C:\USERS\R_SHIMIZU\DOCUMENTS\PROJ\OPTICALFLOW_TIME\OPTICALFLOW_TIME\X64\RELEASE\OPTICALFLOW_TIME.OBJ
/OUT:"C:\USERS\R_SHIMIZU\DOCUMENTS\PROJ\OPTICALFLOW_TIME\X64\RELEASE\OPTICALFLOW_TIME.EXE" /INCREMENTAL:NO /NOLOGO /LIBPATH:"C:\OPENCV-4.5.4\INSTALL\X64\VC15\LIB" /LIBPATH:"C:\PROGRAM FILES\MVTEC\HALCON-20.11-STEADY/LIB/X64-WIN64" KERNEL32.LIB USER32.LIB GDI32.LIB WINSPOOL.LIB COMDLG32.LIB ADVAPI32.LIB SHELL32.LIB OLE32.LIB OLEAUT32.LIB UUID.LIB ODBC32.LIB ODBCCP32.LIB KERNEL32.LIB USER32.LIB GDI32.LIB WINSPOOL.LIB COMDLG32.LIB ADVAPI32.LIB SHELL32.LIB OLE32.LIB OLEAUT32.LIB UUID.LIB ODBC32.LIB ODBCCP32.LIB OPENCV_WORLD454.LIB OPENCV_WORLD454D.LIB OPENCV_IMG_HASH454.LIB OPENCV_IMG_HASH454D.LIB HALCONCPP.LIB KERNEL32.LIB USER32.LIB GDI32.LIB WINSPOOL.LIB COMDLG32.LIB ADVAPI32.LIB SHELL32.LIB OLE32.LIB OLEAUT32.LIB UUID.LIB ODBC32.LIB ODBCCP32.LIB /MANIFEST /MANIFESTUAC:"level='asInvoker' uiAccess='false'" /manifest:embed /DEBUG /PDB:"C:\USERS\R_SHIMIZU\DOCUMENTS\PROJ\OPTICALFLOW_TIME\X64\RELEASE\OPTICALFLOW_TIME.PDB" /SUBSYSTEM:CONSOLE /OPT:REF /OPT:ICF /LTCG:incremental /LTCGOUT:"X64\RELEASE\OPTICALFLOW_TIME.IOBJ" /TLBID:1 /DYNAMICBASE /NXCOMPAT /IMPLIB:"C:\USERS\R_SHIMIZU\DOCUMENTS\PROJ\OPTICALFLOW_TIME\X64\RELEASE\OPTICALFLOW_TIME.LIB" /MACHINE:X64 X64\RELEASE\CV_OPTFLOW.OBJ
X64\RELEASE\HALCON_OPTFLOW.OBJ
X64\RELEASE\OPTICALFLOW_TIME.OBJ
^C:\USERS\R_SHIMIZU\DOCUMENTS\PROJ\OPTICALFLOW\OPTICALFLOW_TIME\OPTICALFLOW_TIME\X64\RELEASE\CV_OPTFLOW.OBJ|C:\USERS\R_SHIMIZU\DOCUMENTS\PROJ\OPTICALFLOW\OPTICALFLOW_TIME\OPTICALFLOW_TIME\X64\RELEASE\HALCON_OPTFLOW.OBJ|C:\USERS\R_SHIMIZU\DOCUMENTS\PROJ\OPTICALFLOW\OPTICALFLOW_TIME\OPTICALFLOW_TIME\X64\RELEASE\OPTICALFLOW_TIME.OBJ
/OUT:"C:\USERS\R_SHIMIZU\DOCUMENTS\PROJ\OPTICALFLOW\OPTICALFLOW_TIME\X64\RELEASE\OPTICALFLOW_TIME.EXE" /INCREMENTAL:NO /NOLOGO /LIBPATH:"C:\OPENCV-4.5.4\INSTALL\X64\VC15\LIB" /LIBPATH:"C:\PROGRAM FILES\MVTEC\HALCON-20.11-STEADY/LIB/X64-WIN64" KERNEL32.LIB USER32.LIB GDI32.LIB WINSPOOL.LIB COMDLG32.LIB ADVAPI32.LIB SHELL32.LIB OLE32.LIB OLEAUT32.LIB UUID.LIB ODBC32.LIB ODBCCP32.LIB KERNEL32.LIB USER32.LIB GDI32.LIB WINSPOOL.LIB COMDLG32.LIB ADVAPI32.LIB SHELL32.LIB OLE32.LIB OLEAUT32.LIB UUID.LIB ODBC32.LIB ODBCCP32.LIB OPENCV_WORLD454.LIB OPENCV_WORLD454D.LIB OPENCV_IMG_HASH454.LIB OPENCV_IMG_HASH454D.LIB HALCONCPP.LIB KERNEL32.LIB USER32.LIB GDI32.LIB WINSPOOL.LIB COMDLG32.LIB ADVAPI32.LIB SHELL32.LIB OLE32.LIB OLEAUT32.LIB UUID.LIB ODBC32.LIB ODBCCP32.LIB /MANIFEST /MANIFESTUAC:"level='asInvoker' uiAccess='false'" /manifest:embed /DEBUG /PDB:"C:\USERS\R_SHIMIZU\DOCUMENTS\PROJ\OPTICALFLOW\OPTICALFLOW_TIME\X64\RELEASE\OPTICALFLOW_TIME.PDB" /SUBSYSTEM:CONSOLE /OPT:REF /OPT:ICF /LTCG:incremental /LTCGOUT:"X64\RELEASE\OPTICALFLOW_TIME.IOBJ" /TLBID:1 /DYNAMICBASE /NXCOMPAT /IMPLIB:"C:\USERS\R_SHIMIZU\DOCUMENTS\PROJ\OPTICALFLOW\OPTICALFLOW_TIME\X64\RELEASE\OPTICALFLOW_TIME.LIB" /MACHINE:X64 X64\RELEASE\CV_OPTFLOW.OBJ
X64\RELEASE\HALCON_OPTFLOW.OBJ
X64\RELEASE\OPTICALFLOW_TIME.OBJ
